Division,WeightClassKg,Place,Name,Team,BodyweightKg,Best3SquatKg,Best3BenchKg,Best3DeadliftKg,TotalKg,Equipment,Event,Sex
Boys,55.79,1,Hector Villegas,Roma,51.75,163.29,77.11,174.63,415.04,Single-ply,SBD,M
Boys,51.71,2,Justin Gutierrez,Crystal City,51.35,124.74,56.7,136.08,317.51,Single-ply,SBD,M
Boys,51.71,3,Luis Gonzalez,Alice,51.07,127.01,65.77,117.93,310.71,Single-ply,SBD,M
Boys,55.79,4,Pablo Vez,Laredo Cigarroa,51.8,108.86,61.23,117.93,288.03,Single-ply,SBD,M
Boys,51.71,DQ,Chris Marroquin,Hebbronville,51.71,,,,,Single-ply,SBD,M
Boys,55.79,1,Edgar Barbosa,Laredo Cigarroa,55.79,190.51,108.86,172.37,471.74,Single-ply,SBD,M
Boys,55.79,2,Max Obregon,Dilley,55.11,170.1,102.06,167.83,439.98,Single-ply,SBD,M
Boys,59.87,3,Cesar Esquivel,Laredo Cigarroa,55.84,156.49,63.5,165.56,385.55,Single-ply,SBD,M
Boys,55.79,4,Randy Mancha,Crystal City,55.38,131.54,81.65,136.08,349.27,Single-ply,SBD,M
Boys,59.87,5,Jorge Arredondo,Hebbronville,56.02,99.79,72.57,117.93,290.3,Single-ply,SBD,M
Boys,55.79,DQ,Roger Lozano,Roma,55.79,,,,,Single-ply,SBD,M
Boys,55.79,DQ,Luis Garza,Laredo Nixon,55.79,,,,,Single-ply,SBD,M
Boys,55.79,DQ,Diego Cantu,Roma,55.16,151.95,65.77,,,Single-ply,SBD,M
Boys,55.79,DQ,Jesus Trevino,Zapata,55.25,136.08,74.84,,,Single-ply,SBD,M
Boys,59.87,1,Jerry Alaniz,Laredo Alexander,59.47,244.94,129.27,215.46,589.67,Single-ply,SBD,M
Boys,67.13,2,Alan Espinosa,Dilley,59.96,176.9,95.25,192.78,464.93,Single-ply,SBD,M
Boys,59.87,3,Jonathan Pena,Laredo United South,59.19,167.83,90.72,179.17,437.72,Single-ply,SBD,M
Boys,67.13,4,Isaac Castillo,Laredo Cigarroa,60.1,161.03,77.11,163.29,401.43,Single-ply,SBD,M
Boys,67.13,5,Joel Aguilar,Roma,60.1,156.49,83.91,149.69,390.09,Single-ply,SBD,M
Boys,59.87,DQ,Eric Oliva,Laredo United South,59.87,,,,,Single-ply,SBD,M
Boys,59.87,DQ,Fabian Garza,Dilley,59.87,,,,,Single-ply,SBD,M
Boys,59.87,DQ,Rudy Martinez,Carrizo Springs,59.65,,,,,Single-ply,SBD,M
Boys,59.87,DQ,Raul Cruz,Carrizo Springs,59.87,,,,,Single-ply,SBD,M
Boys,59.87,DQ,Maclovio Gomez,Zapata,59.56,142.88,,,,Single-ply,SBD,M
Boys,67.13,1,Cesar Alfaro,Laredo United South,67.09,204.12,140.61,215.46,560.19,Single-ply,SBD,M
Boys,67.13,2,Juan Gonzalez,Alice,67,206.38,122.47,197.31,526.17,Single-ply,SBD,M
Boys,67.13,3,Raul Garcia,Carrizo Springs,66.45,176.9,88.45,208.65,474,Single-ply,SBD,M
Boys,74.84,4,Jesus A Gomez,Roma,67.31,167.83,102.06,199.58,469.47,Single-ply,SBD,M
Boys,67.13,5,Andrew Esquivel,Carrizo Springs,64.73,170.1,104.33,192.78,467.2,Single-ply,SBD,M
Boys,67.13,6,Brandon Garza,Hebbronville,64.95,142.88,83.91,167.83,394.63,Single-ply,SBD,M
Boys,67.13,7,Juan Carmona,Laredo Nixon,61.05,120.2,72.57,167.83,360.61,Single-ply,SBD,M
Boys,67.13,8,Jose Rodriguez,Laredo Nixon,62.05,136.08,70.31,124.74,331.12,Single-ply,SBD,M
Boys,67.13,DQ,Leroy Sustaita,Laredo Martin,67.13,,,,,Single-ply,SBD,M
Boys,67.13,DQ,Pablo Osorio,Laredo United,67.13,,,,,Single-ply,SBD,M
Boys,67.13,DQ,Everando Guerrero,Hebbronville,63.23,,,,,Single-ply,SBD,M
Boys,67.13,DQ,Bradley Mankin,Carrizo Springs,67.13,,,,,Single-ply,SBD,M
Boys,67.13,DQ,Eden Martinez,Carrizo Springs,67.13,,,,,Single-ply,SBD,M
Boys,67.13,DQ,Ray Riojas,Carrizo Springs,67.13,,,,,Single-ply,SBD,M
Boys,67.13,DQ,Joseph Canales,Alice,67.13,,,,,Single-ply,SBD,M
Boys,67.13,DQ,Jess Rutledge,Carrizo Springs,63.05,190.51,102.06,,,Single-ply,SBD,M
Boys,67.13,DQ,David Lopez,Laredo United South,64.68,195.04,,,,Single-ply,SBD,M
Boys,67.13,DQ,Danny Hernandez,Laredo Nixon,65.23,158.76,,,,Single-ply,SBD,M
Boys,82.1,1,Edgar Trejo,Laredo United South,75.07,204.12,122.47,219.99,546.58,Single-ply,SBD,M
Boys,74.84,2,Xavione Skaggs,Laredo Alexander,70.62,174.63,108.86,197.31,480.81,Single-ply,SBD,M
Boys,74.84,3,David Puente,Crystal City,73.98,181.44,106.59,192.78,480.81,Single-ply,SBD,M
Boys,74.84,4,Rene Ramirez,Hebbronville,73.03,149.69,99.79,195.04,444.52,Single-ply,SBD,M
Boys,74.84,5,Eric Estrada,Roma,73.89,165.56,106.59,172.37,444.52,Single-ply,SBD,M
Boys,74.84,6,Josh Gongora,Alice,74.53,188.24,90.72,165.56,444.52,Single-ply,SBD,M
Boys,74.84,7,Raul Cabrera,Laredo Cigarroa,74.3,145.15,95.25,163.29,403.7,Single-ply,SBD,M
Boys,74.84,8,Mark Molina,Laredo Cigarroa,70.53,142.88,65.77,185.97,394.63,Single-ply,SBD,M
Boys,74.84,9,Danny DeLeon,Laredo Nixon,70.49,136.08,81.65,170.1,387.82,Single-ply,SBD,M
Boys,74.84,DQ,Eddie McCoy,Laredo Nixon,74.84,,,,,Single-ply,SBD,M
Boys,74.84,DQ,Jose Luis Fuentes,Laredo United,74.84,,,,,Single-ply,SBD,M
Boys,74.84,DQ,Jose Rios,Roma,74.84,,,,,Single-ply,SBD,M
Boys,74.84,DQ,Adrian Garcia,Roma,74.84,,,,,Single-ply,SBD,M
Boys,74.84,DQ,Felipe Ramirez,Laredo Johnson,73.8,204.12,106.59,,,Single-ply,SBD,M
Boys,89.81,1,Victor Ramos,Laredo United South,82.19,210.92,127.01,217.72,555.65,Single-ply,SBD,M
Boys,89.81,2,Daniel Briones,Laredo United South,82.33,208.65,127.01,215.46,551.11,Single-ply,SBD,M
Boys,82.1,3,Jesus Carrasco,Alice,78.74,208.65,108.86,219.99,537.51,Single-ply,SBD,M
Boys,82.1,4,Marco DeLuna,Laredo United South,81.47,213.19,120.2,201.85,535.24,Single-ply,SBD,M
Boys,82.1,5,Joel Elizondo,Zapata,80.65,190.51,122.47,213.19,526.17,Single-ply,SBD,M
Boys,82.1,6,Jacob Garza,Hebbronville,76.79,190.51,97.52,156.49,444.52,Single-ply,SBD,M
Boys,82.1,7,Robert De La Vega,Laredo United,79.65,120.2,81.65,167.83,369.68,Single-ply,SBD,M
Boys,82.1,8,Ivan Flores,Laredo Nixon,80.74,124.74,88.45,142.88,356.07,Single-ply,SBD,M
Boys,82.1,DQ,Federico Villareal,Laredo Martin,82.1,,,,,Single-ply,SBD,M
Boys,82.1,DQ,Victor Mejia,Bruni,82.1,,,,,Single-ply,SBD,M
Boys,82.1,DQ,Brian De Los Santos,Dilley,82.1,,,,,Single-ply,SBD,M
Boys,82.1,DQ,Steve Medrano,Dilley,75.84,158.76,90.72,,,Single-ply,SBD,M
Boys,82.1,DQ,Randy Aguilar,Laredo Johnson,80.56,,,,,Single-ply,SBD,M
Boys,82.1,DQ,Norman Madrigal,Laredo Johnson,75.52,,,,,Single-ply,SBD,M
Boys,82.1,DQ,Javier Botello,Laredo Nixon,79.79,122.47,90.72,,,Single-ply,SBD,M
Boys,89.81,1,Tony Zapata,Alice,88.99,213.19,117.93,199.58,530.7,Single-ply,SBD,M
Boys,89.81,2,Frank Garcia,Laredo Martin,83.19,213.19,104.33,208.65,526.17,Single-ply,SBD,M
Boys,89.81,3,Jose Anaya,Laredo United South,85.59,181.44,92.99,199.58,474,Single-ply,SBD,M
Boys,89.81,4,Cecilio Garcia,Laredo Nixon,88.72,163.29,108.86,181.44,453.59,Single-ply,SBD,M
Boys,89.81,5,Robert Cervantes,Dilley,89.54,149.69,95.25,147.42,392.36,Single-ply,SBD,M
Boys,89.81,DQ,Pedro Diaz,Laredo Alexander,89.81,,,,,Single-ply,SBD,M
Boys,89.81,DQ,Eugenio Perez,Laredo Alexander,89.81,,,,,Single-ply,SBD,M
Boys,89.81,DQ,Eloy Soto,Laredo Cigarroa,89.81,,,,,Single-ply,SBD,M
Boys,89.81,DQ,Calvin Martinez,Carrizo Springs,89.81,,,,,Single-ply,SBD,M
Boys,89.81,DQ,Jonathan Vela,Roma,89.81,,,,,Single-ply,SBD,M
Boys,89.81,DQ,Leo Adams,Alice,88.36,,,,,Single-ply,SBD,M
Boys,99.79,1,Marco Banda,Laredo Nixon,95.39,265.35,136.08,247.21,648.64,Single-ply,SBD,M
Boys,99.79,2,Paul Gonzalez,Laredo United South,99.34,244.94,149.69,231.33,625.96,Single-ply,SBD,M
Boys,99.79,3,Isael Claudio,Laredo Cigarroa,97.2,215.46,120.2,217.72,553.38,Single-ply,SBD,M
Boys,99.79,4,Andres Arvizu,Alice,97.02,240.4,113.4,190.51,544.31,Single-ply,SBD,M
Boys,99.79,5,Silvestre Bustamante,Zapata,98.11,215.46,133.81,190.51,539.77,Single-ply,SBD,M
Boys,99.79,6,Joseph Guerra,Laredo Alexander,97.34,213.19,136.08,185.97,535.24,Single-ply,SBD,M
Boys,99.79,7,David Luna,Laredo Johnson,91.26,185.97,106.59,199.58,492.15,Single-ply,SBD,M
Boys,109.77,8,Ruben Molina,Dilley,100.02,204.12,97.52,188.24,489.88,Single-ply,SBD,M
Boys,99.79,9,Frank Rossi,Hebbronville,95.35,210.92,88.45,179.17,478.54,Single-ply,SBD,M
Boys,99.79,10,Danny Cardona,Laredo United,96.62,154.22,106.59,195.04,455.86,Single-ply,SBD,M
Boys,99.79,11,Lucio Melo,Zapata,97.57,190.51,83.91,181.44,455.86,Single-ply,SBD,M
Boys,99.79,12,Marcos Gutierrez,Hebbronville,95.53,176.9,83.91,158.76,419.57,Single-ply,SBD,M
Boys,99.79,13,Eddie Dominguez,Laredo United,94.76,142.88,79.38,156.49,378.75,Single-ply,SBD,M
Boys,99.79,DQ,Max Flores,Laredo Alexander,99.79,,,,,Single-ply,SBD,M
Boys,99.79,DQ,Valentin Palomares,Laredo Johnson,93.08,,,,,Single-ply,SBD,M
Boys,99.79,DQ,David Montelongo,Laredo Martin,92.71,142.88,,,,Single-ply,SBD,M
Boys,99.79,DQ,Jordy Velasquez,Laredo Johnson,94.39,,,,,Single-ply,SBD,M
Boys,99.79,DQ,Rodrigo Saldivar,Zapata,95.84,190.51,,,,Single-ply,SBD,M
Boys,99.79,DQ,Rogelio Rodriguez,Zapata,93.44,183.7,,,,Single-ply,SBD,M
Boys,109.77,DQ,Luis Martinez,Zapata,99.97,140.61,,,,Single-ply,SBD,M
Boys,109.77,1,Christian Rosas,Laredo Alexander,106.41,238.14,151.95,229.06,619.15,Single-ply,SBD,M
Boys,109.77,2,Warren Oaks,Alice,107.86,217.72,167.83,213.19,598.74,Single-ply,SBD,M
Boys,109.77,3,Jonathan Guzman,Roma,101.51,208.65,83.91,204.12,496.68,Single-ply,SBD,M
Boys,109.77,4,Victor Nenque,Laredo Nixon,106.68,190.51,106.59,197.31,494.42,Single-ply,SBD,M
Boys,109.77,5,Gabriel Martinez,Laredo Nixon,102.6,181.44,104.33,190.51,476.27,Single-ply,SBD,M
Boys,109.77,6,Jorge Rodriguez,Zapata,107.86,133.81,83.91,158.76,376.48,Single-ply,SBD,M
Boys,109.77,DQ,Elhim Hernandez,Laredo United,109.77,,,,,Single-ply,SBD,M
Boys,109.77,DQ,Robert Vargas,Hebbronville,109.77,,,,,Single-ply,SBD,M
Boys,109.77,DQ,RJ Garza,Laredo Martin,102.47,,,,,Single-ply,SBD,M
Boys,109.77,DQ,Santos Alvarado,Laredo United,108.45,258.55,,,,Single-ply,SBD,M
Boys,109.77,DQ,Jose Barbarena,Laredo Nixon,102.97,158.76,97.52,,,Single-ply,SBD,M
Boys,109.77,DQ,John Arguijo,Laredo Martin,101.83,224.53,,,,Single-ply,SBD,M
Boys,124.74,1,Juan Macias,Alice,115.85,247.21,156.49,229.06,632.76,Single-ply,SBD,M
Boys,124.74,2,Ruben Hinojosa,Roma,123.24,256.28,122.47,215.46,594.21,Single-ply,SBD,M
Boys,124.74,3,Michael Garza #1,Crystal City,119.11,263.08,115.67,192.78,571.53,Single-ply,SBD,M
Boys,124.74,4,Jacob Chapa,Bruni,110.13,231.33,122.47,213.19,566.99,Single-ply,SBD,M
Boys,124.74,DQ,Juan Ramirez,Carrizo Springs,124.74,,,,,Single-ply,SBD,M
Boys,124.74,DQ,Gilbert Hernandez,Laredo Cigarroa,124.74,,,,,Single-ply,SBD,M
Boys,124.74,DQ,Jose B Flores,Laredo Cigarroa,124.74,,,,,Single-ply,SBD,M
Boys,124.74,DQ,Justin Hernandez,Laredo Nixon,124.74,,,,,Single-ply,SBD,M
Boys,124.74,DQ,Manuel Navarro,Zapata,122.47,235.87,,,,Single-ply,SBD,M
Boys,124.74,DQ,Mario Camero,Laredo Johnson,121.02,,,,,Single-ply,SBD,M
Boys,124.74+,1,Rudy Flores,Laredo United South,139.25,265.35,161.03,254.01,680.39,Single-ply,SBD,M
Boys,124.74+,DQ,Marcus Avila,Carrizo Springs,125.19,,,,,Single-ply,SBD,M
Boys,124.74+,DQ,Hector Velasquez,Laredo Johnson,138.71,165.56,,,,Single-ply,SBD,M
Boys,124.74+,DQ,Omar Santos,Laredo Johnson,129.59,,,,,Single-ply,SBD,M
Boys,124.74+,DQ,Julius Gonzales,Dilley,127.1,,,,,Single-ply,SBD,M
