Place,Name,Sex,Event,Division,Equipment,BirthYear,State,BodyweightKg,WeightClassKg,Squat1Kg,Squat2Kg,Squat3Kg,Best3SquatKg,Bench1Kg,Bench2Kg,Bench3Kg,Best3BenchKg,Deadlift1Kg,Deadlift2Kg,Deadlift3Kg,Best3DeadliftKg,TotalKg,BirthDate
1,Grace Chatelain,F,SBD,FR-O,Raw,2006,LA,91.7,84+,165,177.5,187.5,187.5,85,90,-92.5,90,112.5,122.5,-127.5,122.5,400,
1,Deborah Wilson,F,SBD,FR-M4a,Raw,1950,LA,78.9,84,35,40,45,45,35,37.5,40,40,85,87.5,90,90,175,
1,Stephanie Hamilton,F,SBD,FR-O,Raw,1992,LA,64.5,69,85,92.5,97.5,97.5,62.5,67.5,-70,67.5,97.5,105,115,115,280,
1,Joseph Ford,M,SBD,MR-Jr,Raw,1998,LA,81.4,83,142.5,152.5,162.5,162.5,72.5,-90,-90,72.5,-182.5,190,-212.5,190,425,
DQ,Keenan Granger,M,SBD,MR-Jr,Raw,1998,LA,80,83,160,172.5,-185,172.5,-110,-120,-120,,207.5,215,-230,215,,
1,Deandre Louis,M,SBD,MR-O,Raw,1997,LA,58.8,59,145,150,160,160,80,85,87.5,87.5,185,190,192.5,192.5,440,
DQ,David Villafranca,M,SBD,MR-O,Raw,1983,LA,82.2,83,195,200,-205,200,-165,-165,-165,,212.5,-220,-227.5,212.5,,
DQ,Landon Wall,M,SBD,MR-T2,Raw,2004,LA,88,93,-147.5,-147.5,-147.5,,107.5,115,-122.5,115,160,-172.5,172.5,172.5,,
