Place,Equipment,WeightClassKg,Name,CyrillicName,Sex,Team,BirthDate,Division,BodyweightKg,Squat1Kg,Squat2Kg,Squat3Kg,Best3SquatKg,Bench1Kg,Bench2Kg,Bench3Kg,Bench4Kg,Best3BenchKg,Deadlift1Kg,Deadlift2Kg,Deadlift3Kg,Best3DeadliftKg,TotalKg,Event,Tested
1,Wraps,60,Olga Sharafutdinova,Ольга Шарафутдинова,F,Гантеля,1974-07-24,Amateur Masters 40-44,58.2,45,52.5,60,60,,,,,,,,,,60,S,Yes
1,Wraps,60,Alyona Ryabikova,Алёна Рябикова,F,Екатеринбург,1980-12-08,Amateur Open,59.9,-120,120,125,125,,,,,,,,,,125,S,Yes
1,Raw,52,Yana Gubskaya,Яна Губская,F,Оренбургская область,1987-03-02,Amateur Open,50.8,,,,,,,,,,120,-130,-130,120,120,D,Yes
1,Raw,52,Polina Glavatskikh,Полина Главатских,F,Богатырь,1999-10-15,Amateur Teen 16-17,48.75,,,,,,,,,,110,-120,,110,110,D,Yes
1,Raw,56,Yuliya Dubovikova,Юлия Дубовикова,F,Челябинская область,1981-05-25,Amateur Open,54.6,,,,,,,,,,110,117.5,122.5,122.5,122.5,D,Yes
1,Raw,56,Vladislava Vostretsova,Владислава Вострецова,F,Тавда,2002-05-09,Amateur Teen 14-15,56,,,,,,,,,,-100,100,-107.5,100,100,D,Yes
1,Raw,60,Olga Sharafutdinova,Ольга Шарафутдинова,F,Гантеля,1974-07-24,Amateur Masters 40-44,58.2,,,,,,,,,,50,60,-70,60,60,D,Yes
1,Raw,60,Kseniya Brel,Ксения Брель,F,Medwed Barbell,1991-08-12,Amateur Open,58.6,,,,,,,,,,100,107.5,112.5,112.5,112.5,D,Yes
1,Raw,75,Elena Putilova,Елена Путилова,F,Богатырь,1965-11-29,Amateur Masters 50-54,70.4,,,,,,,,,,65,-75,-80,65,65,D,Yes
1,Raw,44,Lev Mitrofanov,Лев Митрофанов,M,Джим Холл,2008-07-09,Amateur Teen 13,29,,,,,,,,,,60,70,,70,70,D,Yes
DQ,Raw,60,Danil Sabanov,Данил Сабанов,M,Тавда,2001-05-14,Amateur Teen 14-15,60,,,,,,,,,,-120,-120,-152.5,,,D,Yes
1,Raw,67.5,Ivan Yaroslavtsev,Иван Ярославцев,M,Екатеринбург,1996-07-13,Amateur Juniors 20-23,64.8,,,,,,,,,,180,192.5,197.5,197.5,197.5,D,Yes
2,Raw,67.5,Aleksandr Sergeev #13,Александр Сергеев,M,Огненный Щит,1995-06-23,Amateur Juniors 20-23,64.9,,,,,,,,,,-190,190,-192.5,190,190,D,Yes
3,Raw,67.5,Sergey Sokolov,Сергей Соколов,M,Тюмень,1993-07-09,Amateur Juniors 20-23,66.1,,,,,,,,,,167.5,180,-192.5,180,180,D,Yes
1,Raw,67.5,Andrey Mitrakov,Андрей Митраков,M,Приморский край,1988-08-23,Amateur Open,64.3,,,,,,,,,,220,-250,250,250,250,D,Yes
2,Raw,67.5,Aleksandr Gilvanov,Александр Гильванов,M,Екатеринбург,1990-02-28,Amateur Open,67.3,,,,,,,,,,175,-192.5,-192.5,175,175,D,Yes
3,Raw,67.5,Igor Khannanov,Игорь Ханнанов,M,Верхняя Пышма,1987-03-03,Amateur Open,66.3,,,,,,,,,,155,165,-167.5,165,165,D,Yes
4,Raw,67.5,Maksim Kruchinin,Максим Кручинин,M,Тавда,1992-01-29,Amateur Open,65.5,,,,,,,,,,-120,-120,120,120,120,D,Yes
1,Raw,67.5,Yuriy Ekimov,Юрий Екимов,M,Курганская область,2000-11-06,Amateur Teen 16-17,65.25,,,,,,,,,,175,192.5,-202.5,192.5,192.5,D,Yes
2,Raw,67.5,Rafail Dzhalilov,Рафаил Джалилов,M,Gold Fit,1999-09-14,Amateur Teen 16-17,67,,,,,,,,,,155,-167.5,167.5,167.5,167.5,D,Yes
1,Raw,75,Evgeniy Dudin,Евгений Дудин,M,Курган,1994-12-04,Amateur Juniors 20-23,74.4,,,,,,,,,,155,-165,165,165,165,D,Yes
1,Raw,75,Anton Navrotskiy,Антон Навроцкий,M,Екатеринбург,1991-04-25,Amateur Open,74,,,,,,,,,,190,205,-220,205,205,D,Yes
2,Raw,75,Aleksandr Sergeev #14,Александр Сергеев,M,Тюмень,1985-05-19,Amateur Open,73.8,,,,,,,,,,165,-175,-175,165,165,D,Yes
1,Raw,75,Anatoliy Vasyukov,Анатолий Васюков,M,Огненный щит,1995-05-22,Amateur Juniors 20-23,71.2,,,,,,,,,,190,195,197.5,197.5,197.5,D,Yes
1,Raw,75,Gor Pogosyan,Гор Погосян,M,Богданович,2000-12-23,Amateur Teen 16-17,70.45,,,,,,,,,,120,125,130,130,130,D,Yes
1,Raw,82.5,Ivan Bezdykhanyuk,Иван Бездыханюк,M,Огненный Щит,1995-01-26,Amateur Juniors 20-23,78.3,,,,,,,,,,187.5,195,205,205,205,D,Yes
1,Raw,82.5,Matvey Kozikov,Матвей Козиков,M,Екатеринбург,1989-01-09,Amateur Open,80.4,,,,,,,,,,240,250,255,255,255,D,Yes
2,Raw,82.5,Andrey Vakeev,Андрей Вакеев,M,Республика Башкортостан,1985-07-17,Amateur Open,79.2,,,,,,,,,,-170,170,187.5,187.5,187.5,D,Yes
3,Raw,82.5,Valeryan Vakhmyanin,Валерьян Вахмянин,M,Березовский,1982-02-04,Amateur Open,80.5,,,,,,,,,,175,-187.5,187.5,187.5,187.5,D,Yes
1,Raw,82.5,Nikita Ketov,Никита Кетов,M,Тюмень,1998-07-27,Amateur Teen 18-19,79,,,,,,,,,,180,190,-195,190,190,D,Yes
1,Raw,90,Dmitriy Gagarin,Дмитрий Гагарин,M,Пермский край,1989-03-26,Amateur Open,89.5,,,,,,,,,,245,257.5,-265,257.5,257.5,D,Yes
2,Raw,90,Stanislav Yusupov,Станислав Юсупов,M,Гантеля,1988-07-30,Amateur Open,89,,,,,,,,,,200,-235,235,235,235,D,Yes
3,Raw,90,Evgeniy Plotnikov,Евгений Плотников,M,Республика Башкортостан,1982-07-28,Amateur Open,89.1,,,,,,,,,,180,190,200,200,200,D,Yes
1,Raw,90,Artyom Ostroushko,Артём Остроушко,M,Тюмень,1999-05-27,Amateur Teen 16-17,87.3,,,,,,,,,,200,215,225,225,225,D,Yes
1,Raw,90,Dmitriy Kvashnin,Дмитрий Квашнин,M,Камышлов,1999-01-02,Amateur Teen 18-19,86.9,,,,,,,,,,-187.5,197.5,205,205,205,D,Yes
1,Raw,100,Aleksandr Timofeev,Александр Тимофеев,M,Курганская область,1994-12-19,Amateur Juniors 20-23,100,,,,,,,,,,230,252.5,-260,252.5,252.5,D,Yes
1,Raw,100,Eduard Posobilov,Эдуард Пособилов,M,Республика Башкортостан,1970-05-29,Amateur Masters 45-49,100,,,,,,,,,,195,205,215,215,215,D,Yes
1,Raw,100,Dmitriy Kozionov,Дмитрий Козионов,M,Республика Башкортостан,1983-01-12,Amateur Open,98.9,,,,,,,,,,220,235,242.5,242.5,242.5,D,Yes
2,Raw,100,Dmitriy Petrov,Дмитрий Петров,M,Тавда,1982-08-06,Amateur Open,95.1,,,,,,,,,,235,-245,-245,235,235,D,Yes
1,Raw,110,Valeriy Nefyodov,Валерий Нефёдов,M,Тюмень,1967-06-17,Amateur Masters 45-49,106.5,,,,,,,,,,250,-255,,250,250,D,Yes
2,Raw,110,Sergey Chernyshev,Сергей Чернышев,M,Республика Башкортостан,1971-06-12,Amateur Masters 45-49,110,,,,,,,,,,192.5,222.5,,222.5,222.5,D,Yes
1,Raw,110,Roman Demin,Роман Демин,M,ЯНАО,1980-04-24,Amateur Open,107.7,,,,,,,,,,300,315,326,326,326,D,Yes
2,Raw,110,Sergey Permyakov,Сергей Пермяков,M,Олимпия Жим,1981-12-19,Amateur Open,104.6,,,,,,,,,,255,270,280,280,280,D,Yes
3,Raw,110,Pavel Fuchkin,Павел Фучкин,M,Ирбит,1983-09-13,Amateur Open,106.3,,,,,,,,,,260,277.5,-290,277.5,277.5,D,Yes
4,Raw,110,Aleksey Nesterov,Алексей Нестеров,M,Гантеля,1989-04-02,Amateur Open,108.2,,,,,,,,,,-190,190,210,210,210,D,Yes
1,Raw,125,Egor Ulanov,Егор Уланов,M,Екатеринбург,1988-06-06,Amateur Open,110.8,,,,,,,,,,175,195,205,205,205,D,Yes
1,Wraps,44,Natalya Petrova,Наталья Петрова,F,Богатырь,1988-10-06,Amateur Open,42.9,55,60,-62.5,60,35,40,42.5,,42.5,75,-80,-80,75,177.5,SBD,Yes
1,Wraps,44,Polina Yudina,Полина Юдина,F,Камышлов,2005-02-13,Amateur Teen 13,43.8,40,-50,,40,27.5,-32.5,-32.5,,27.5,30,-50,60,60,127.5,SBD,Yes
1,Wraps,48,Tatyana Mikhaleva,Татьяна Михалева,F,Колизей,1980-08-24,Amateur Open,47,-85,-90,90,90,47.5,50,-52.5,,50,115,122.5,-127.5,122.5,262.5,SBD,Yes
1,Wraps,52,Yuliya Ryasnova,Юлия Ряснова,F,Золотой Тигр,,Amateur Open,51.3,87.5,-92.5,-92.5,87.5,45,47.5,-50,,47.5,105,110,-115,110,245,SBD,Yes
2,Wraps,52,Yana Gubskaya,Яна Губская,F,Оренбургская область,1987-03-02,Amateur Open,50.8,70,-80,-80,70,40,45,-50,,45,120,-130,-130,120,235,SBD,Yes
1,Wraps,56,Anna Trushnikova,Анна Трушникова,F,Белоярский,1979-12-17,Amateur Open,54.4,50,-60,60,60,45,-52.5,-52.5,,45,70,-80,-80,70,175,SBD,Yes
1,Wraps,56,Alyona Matyushina,Алёна Матюшина,F,Камышлов,2000-07-18,Amateur Teen 16-17,52.9,55,-65,-65,55,35,-37.5,,,35,60,75,80,80,170,SBD,Yes
1,Wraps,60,Anastasiya Khramtsova,Анастасия Храмцова,F,drive fitness,1996-06-16,Amateur Juniors 20-23,59.9,85,90,100,100,65,70,-72.5,,70,100,110,-137.5,110,280,SBD,Yes
1,Wraps,60,Olga Sharafutdinova,Ольга Шарафутдинова,F,Гантеля,1974-07-24,Amateur Masters 40-44,58.2,45,52.5,60,60,45,-50,-50,,45,50,60,-70,60,165,SBD,Yes
1,Wraps,60,Alyona Ryabikova,Алёна Рябикова,F,Екатеринбург,1980-12-08,Amateur Open,59.9,-120,120,125,125,57.5,-60,-60,,57.5,-145,145,-150,145,327.5,SBD,Yes
2,Wraps,60,Natalya Volodina,Наталья Володина,F,Динамит,1978-10-19,Amateur Open,58.5,-90,-90,90,90,55,60,-65,,60,110,,,110,260,SBD,Yes
1,Wraps,67.5,Elena Safonova,Елена Сафонова,F,Магнитогорск,1990-01-29,Amateur Open,67.5,100,125,-130,125,60,-77.5,-77.5,,60,100,135,-140,135,320,SBD,Yes
2,Wraps,67.5,Albina Zaynullina,Альбина Зайнуллина,F,Сухой Лог,1990-08-31,Amateur Open,64.65,90,100,110,110,45,55,-62.5,,55,90,100,110,110,275,SBD,Yes
1,Wraps,82.5,Valeriya Artemchuk,Валерия Артемчук,F,Гараж Джим,1976-09-06,Amateur Masters 40-44,78.5,60,70,80,80,60,62.5,65,,65,80,-90,100,100,245,SBD,Yes
1,Wraps,52,Kirill Lizunkin,Кирилл Лизунькин,M,Гантеля,2004-11-16,Amateur Teen 13,50,-62.5,65,67.5,67.5,37.5,-40,-40,,37.5,80,85,87.5,87.5,192.5,SBD,Yes
1,Wraps,56,Leonid Dushkin,Леонид Душкин,M,Гантеля,2004-03-28,Amateur Teen 13,55.9,55,-60,60,60,32.5,35,37.5,,37.5,72.5,77.5,82.5,82.5,180,SBD,Yes
1,Wraps,60,Daniil Dubinin,Даниил Дубинин,M,Три икса,,Amateur Teen 16-17,58,90,92.5,100,100,60,62.5,65,,65,110,115,117.5,117.5,282.5,SBD,Yes
1,Wraps,67.5,Aleksey Shevelev,Алексей Шевелев,M,Екатеринбург,1987-11-01,Amateur Open,65.4,160,-180,-195,160,100,110,120,,120,160,170,-185,170,450,SBD,Yes
2,Wraps,67.5,Sergey Zakharchenko,Сергей Захарченко,M,Челябинская область,1987-08-29,Amateur Open,63.4,105,115,122.5,122.5,72.5,80,82.5,,82.5,140,150,155,155,360,SBD,Yes
1,Wraps,67.5,Egor Bezdetov,Егор Бездетов,M,Челябинская область,2002-03-29,Amateur Teen 14-15,61.5,122.5,130,137.5,137.5,90,95,97.5,,97.5,137.5,145,155,155,390,SBD,Yes
2,Wraps,67.5,Artyom Uporov,Артём Упоров,M,Камышлов,2001-04-27,Amateur Teen 14-15,67,120,130,135,135,85,-90,90,,90,-155,155,,155,380,SBD,Yes
1,Wraps,67.5,Rafail Dzhalilov,Рафаил Джалилов,M,Gold Fit,1999-09-14,Amateur Teen 16-17,67,110,120,-130,120,85,95,100,,100,155,-167.5,167.5,167.5,387.5,SBD,Yes
2,Wraps,67.5,Artur Tarasov,Артур Тарасов,M,Башкортостан,1999-06-17,Amateur Teen 16-17,66.15,100,112.5,-122.5,112.5,70,77.5,-82.5,,77.5,-110,115,-130,115,305,SBD,Yes
1,Wraps,75,Anatoliy Vasyukov,Анатолий Васюков,M,Огненный щит,1995-05-22,Amateur Juniors 20-23,71.2,140,145,-150,145,120,130,132.5,,132.5,190,195,197.5,197.5,475,SBD,Yes
2,Wraps,75,Maksim Klimov,Максим Климов,M,Камышлов,1996-10-25,Amateur Juniors 20-23,73.7,135,140,145,145,90,100,-105,,100,175,195,-200,195,440,SBD,Yes
1,Wraps,75,Vyacheslav Rychapov,Вячеслав Рычапов,M,Башкортостан,1984-10-16,Amateur Open,74.95,-155,155,165,165,130,140,,,140,175,185,200,200,505,SBD,Yes
1,Wraps,75,Anton Uporov,Антон Упоров,M,Камышлов,2001-04-27,Amateur Teen 14-15,67.8,110,120,-130,120,-77.5,77.5,82.5,,82.5,145,160,-165,160,362.5,SBD,Yes
1,Wraps,75,Igor Lipevich,Игорь Липевич,M,Сухой Лог,1999-12-24,Amateur Teen 16-17,72,190,205,-210,205,110,117.5,122.5,,122.5,195,-210,210,210,537.5,SBD,Yes
2,Wraps,75,Anton Korolyov,Антон Королёв,M,Камышлов,2000-08-20,Amateur Teen 16-17,72.9,155,165,170,170,85,90,-95,,90,155,175,180,180,440,SBD,Yes
3,Wraps,75,Vladislav Mikheev,Владислав Михеев,M,Золотой Тигр,1999-11-13,Amateur Teen 16-17,72.2,140,150,155,155,100,-107.5,-107.5,,100,170,-180,180,180,435,SBD,Yes
1,Wraps,75,Mikhail Gubanov,Михаил Губанов,M,Богатырь,1998-01-08,Amateur Teen 18-19,74.9,150,-160,165,165,120,-130,-130,,120,200,215,-225,215,500,SBD,Yes
1,Wraps,82.5,Vladislav Samoylov,Владислав Самойлов,M,Medwed Barbell,1997-03-18,Amateur Juniors 20-23,79.5,170,185,195,195,120,127.5,-135,,127.5,200,210,220,220,542.5,SBD,Yes
1,Wraps,82.5,Aleksey Lyapustin,Алексей Ляпустин,M,Лидер,1976-03-20,Amateur Masters 40-44,82.25,170,175,-180,175,130,137.5,-142.5,,137.5,210,-220,-220,210,522.5,SBD,Yes
1,Wraps,82.5,Nikolay Fufaldin,Николай Фуфалдин,M,Екатеринбург,1956-01-02,Amateur Masters 60-64,82.3,170,190,200,200,100,110,-115,,110,190,201,,201,511,SBD,Yes
1,Wraps,82.5,Aleksey Ovsyannikov,Алексей Овсянников,M,Новая Ляля,1985-02-15,Amateur Open,82.5,190,200,210,210,147.5,155,-157.5,,155,220,230,237.5,237.5,602.5,SBD,Yes
2,Wraps,82.5,Matvey Kozikov,Матвей Козиков,M,Екатеринбург,1989-01-09,Amateur Open,80.4,160,170,-175,170,115,120,125,,125,240,250,255,255,550,SBD,Yes
3,Wraps,82.5,Anton Mardosa,Антон Мардоса,M,Новая Ляля,1985-01-26,Amateur Open,79.9,165,175,-182.5,175,117.5,125,-130,,125,195,207.5,-215,207.5,507.5,SBD,Yes
4,Wraps,82.5,Aleksey Zhukov,Алексей Жуков,M,Пермский край,1987-09-19,Amateur Open,78.7,160,-170,180,180,130,-140,-140,,130,180,195,-210,195,505,SBD,Yes
5,Wraps,82.5,Valeryan Vakhmyanin,Валерьян Вахмянин,M,Березовский,1982-02-04,Amateur Open,80.5,150,160,-170,160,102.5,-112.5,-112.5,,102.5,175,-187.5,187.5,187.5,450,SBD,Yes
1,Wraps,82.5,Danil Ovchinnikov,Данил Овчинников,M,Камышлов,2000-04-14,Amateur Teen 16-17,79.4,160,170,175,175,110,120,-125,,120,180,195,205,205,500,SBD,Yes
2,Wraps,82.5,Dmitriy Maslennikov,Дмитрий Масленников,M,Гантеля,2000-11-29,Amateur Teen 16-17,82.5,160,-170,-175,160,110,115,-120,,115,180,200,217.5,217.5,492.5,SBD,Yes
1,Wraps,82.5,Nikita Ketov,Никита Кетов,M,Тюмень,1998-07-27,Amateur Teen 18-19,79,-140,150,-155,150,90,100,105,,105,180,190,-195,190,445,SBD,Yes
1,Wraps,90,Aleksey Gostishchev,Алексей Гостищев,M,Казахстан,1993-06-09,Amateur Juniors 20-23,88.4,190,197.5,202.5,202.5,125,130,132.5,,132.5,210,222.5,235,235,570,SBD,Yes
2,Wraps,90,Zaur Ibragimov,Заур Ибрагимов,M,Золотой Тигр,1995-10-16,Amateur Juniors 20-23,89.05,185,192.5,197.5,197.5,130,135,-137.5,,135,200,210,,210,542.5,SBD,Yes
1,Wraps,90,Aleksandr Leontev,Александр Леонтьев,M,Республика Башкортостан,1961-01-24,Amateur Masters 55-59,89.7,150,160,170,170,130,135,-140,,135,170,185,200,200,505,SBD,Yes
1,Wraps,90,Dmitriy Gagarin,Дмитрий Гагарин,M,Пермский край,1989-03-26,Amateur Open,89.5,200,210,220,220,160,170,-177.5,,170,245,257.5,-265,257.5,647.5,SBD,Yes
2,Wraps,90,Vladislav Levkovich,Владислав Левкович,M,Асбест,1982-03-07,Amateur Open,89.65,205,-210,-210,205,-155,155,-157.5,,155,220,-242.5,-242.5,220,580,SBD,Yes
3,Wraps,90,Artur Gubaydulin,Артур Губайдулин,M,Республика Башкортостан,1982-07-20,Amateur Open,83,125,130,135,135,90,95,-100,,95,130,140,150,150,380,SBD,Yes
1,Wraps,90,Eduard Zamiralov,Эдуард Замиралов,M,Гантеля,1998-02-17,Amateur Teen 18-19,87.7,170,180,190,190,130,140,-150,,140,190,205,-212.5,205,535,SBD,Yes
1,Wraps,100,Ildar Rakhimov,Ильдар Рахимов,M,Ивдель,1973-04-21,Amateur Masters 40-44,99.5,210,220,,220,140,-150,-150,,140,220,-245,-245,220,580,SBD,Yes
2,Wraps,100,Aleksey Kolesnikov,Алексей Колесников,M,Medwed Barbell,1974-08-18,Amateur Masters 40-44,92.35,-175,175,180,180,110,120,-130,,120,175,185,200,200,500,SBD,Yes
1,Wraps,100,Sergey Taranenko,Сергей Тараненко,M,Республика Башкортостан,1971-03-14,Amateur Masters 45-49,93.8,190,210,230,230,140,150,-160,,150,220,235,245,245,625,SBD,Yes
2,Wraps,100,Vitaliy Bogatov,Виталий Богатов,M,ХМАО,1971-01-16,Amateur Masters 45-49,93.25,190,200,205,205,120,-130,,,120,-200,220,230,230,555,SBD,Yes
1,Wraps,100,Stanislav Peyas,Станислав Пеяс,M,Березники,1990-11-28,Amateur Open,99.3,235,-250,250,250,170,180,,,180,270,-290,-300,270,700,SBD,Yes
2,Wraps,100,Aleksey Mikov,Алексей Миков,M,Ивдель,1978-04-26,Amateur Open,93.8,-220,220,230,230,150,160,167.5,,167.5,245,270,-280,270,667.5,SBD,Yes
3,Wraps,100,Vladislav Shuvalov,Владислав Шувалов,M,Челябинская область,1985-06-12,Amateur Open,99.6,215,230,240,240,150,160,165,,165,215,230,240,240,645,SBD,Yes
4,Wraps,100,Aleksandr Terentev,Александр Терентьев,M,Уральский атлет,1984-11-19,Amateur Open,95.4,170,182.5,-190,182.5,120,125,,,125,192,202.5,210,210,517.5,SBD,Yes
1,Wraps,100,Vitaliy Neustroev,Виталий Неустроев,M,Богатырь,2001-07-28,Amateur Teen 14-15,99.3,100,110,-125,110,75,82.5,-87.5,,82.5,110,120,-127.5,120,312.5,SBD,Yes
1,Wraps,100,Danil Bezdetnov,Данил Бездетнов,M,Челябинская область,1999-10-09,Amateur Teen 16-17,97.1,165,172.5,180,180,130,-135,-135,,130,175,185,195,195,505,SBD,Yes
1,Wraps,100,Stanislav Melnikov,Станислав Мельников,M,Богатырь,1998-07-02,Amateur Teen 18-19,91,135,145,-152.5,145,95,100,-110,,100,180,-195,195,195,440,SBD,Yes
1,Wraps,110,Artyom Reshetnikov,Артём Решетников,M,Тюмень,1989-06-08,Amateur Open,108.2,220,240,260,260,175,182.5,190,,190,260,275,285,285,735,SBD,Yes
2,Wraps,110,Oleg Ploskikh,Олег Плоских,M,Тюмень,1992-04-26,Amateur Open,109.8,-235,235,245,245,170,180,185,,185,250,270,280,280,710,SBD,Yes
3,Wraps,110,Renat Alabergenov,Ренат Алабергенов,M,Ивдель,1988-06-16,Amateur Open,108.6,220,230,-240,230,150,160,167.5,,167.5,230,-250,-250,230,627.5,SBD,Yes
4,Wraps,110,Artyom Lavrov,Артём Лавров,M,Уральский атлет,1979-09-08,Amateur Open,107.4,215,-220,220,220,160,170,175,,175,210,220,230,230,625,SBD,Yes
1,Wraps,125,Sergey Kudryavtsev,Сергей Кудрявцев,M,Богатырь,1974-09-25,Amateur Masters 40-44,115.5,200,210,220,220,160,170,-175,,170,200,220,-225,220,610,SBD,Yes
1,Wraps,140,Vasiliy Petrov,Василий Петров,M,Medwed Barbell,1975-11-14,Amateur Masters 40-44,136.7,310,320,330,330,235,245,250,,250,-305,305,320,320,900,SBD,Yes
1,Wraps,140,Vasiliy Petrov,Василий Петров,M,Medwed Barbell,1975-11-14,Amateur Open,136.7,310,320,330,330,235,245,250,,250,-305,305,320,320,900,SBD,Yes
1,Single-ply,82.5,Dmitriy Agapov,Дмитрий Агапов,M,Михайловск,1992-05-09,Amateur Open,77.05,,,,,,,,,,170,187.5,,187.5,187.5,D,Yes
1,Single-ply,75,Aleksey Bydanov,Алексей Быданов,M,Тюмень,1984-12-30,Amateur Open,72.5,,,,,,,,,,200,-207.5,,200,200,D,Yes
1,Single-ply,90,Ullubiy Khydyvov,Уллубий Хыдывов,M,Тюмень,1996-07-02,Amateur Juniors 20-23,89.95,,,,,,,,,,220,235,,235,235,D,Yes
DQ,Single-ply,90,Maksim Krylatkov,Максим Крылатков,M,Полевской,1999-12-31,Amateur Teen 16-17,86.8,150,165,-175,165,-110,-110,-110,,,170,,,170,,SBD,Yes
1,Single-ply,82.5,Pavel Matveev,Павел Матвеев,M,Арти,1990-07-08,Amateur Open,81.6,200,215,-230,215,150,160,170,,170,200,210,-220,210,595,SBD,Yes
1,Single-ply,90,Dmitriy Koshkin,Дмитрий Кошкин,M,Medwed Barbell,1988-12-14,Amateur Open,88.5,220,240,260,260,170,185,-195,,185,220,240,-260,240,685,SBD,Yes
1,Multi-ply,60,Olesya Braslavets,Олеся Браславец,F,Medwed Barbell,1981-02-03,Amateur Open,59.8,135,142.5,-150,142.5,80,87.5,-92.5,,87.5,135,147.5,152.5,152.5,382.5,SBD,Yes
1,Wraps,67.5,Larisa Fedyanovich,Лариса Федянович,F,Гантеля,1974-05-26,Pro Masters 40-44,63.1,60,65,-70,65,,,,,,,,,,65,S,No
1,Single-ply,100,Evgeniy Blinkov,Евгений Блинков,M,Гантеля,1987-09-03,Pro Open,100,-327.5,-337.5,337.5,337.5,,,,,,,,,,337.5,S,No
1,Multi-ply,82.5,Valeriy Glazunov,Валерий Глазунов,M,Михайловск,1948-12-18,Pro Masters 65-69,76.9,220,240,,240,,,,,,,,,,240,S,No
1,Multi-ply,82.5,Andrey Mitrofanov,Андрей Митрофанов,M,Джим Холл,1978-08-08,Pro Open,81.8,350,-375,375,375,,,,,,,,,,375,S,No
DQ,Multi-ply,110,Vladimir Potapov,Владимир Потапов,M,Курганская область,1954-05-22,Pro Masters 60-64,107.5,-240,-240,-240,,,,,,,,,,,,S,No
1,Raw,67.5,Larisa Fedyanovich,Лариса Федянович,F,Гантеля,1974-05-25,Pro Masters 40-44,63.1,,,,,,,,,,75,82.5,-90,82.5,82.5,D,No
1,Raw,90,Konstantin Novikov,Константин Новиков,M,Medwed Barbell,1978-09-17,Pro Open,89.9,,,,,,,,,,260,280,-300,280,280,D,No
2,Raw,90,Igor Sedov,Игорь Седов,M,Курганская область,1990-09-28,Pro Open,89.7,,,,,,,,,,270,-282.5,-282.5,270,270,D,No
1,Raw,100,Evgeniy Shishkin,Евгений Шишкин,M,Гантеля,1973-06-16,Pro Masters 40-44,93.6,,,,,,,,,,180,195,-205,195,195,D,No
1,Raw,100,Aleksandr Sapozhnikov,Александр Сапожников,M,Брайт Фит,1989-03-17,Pro Open,92.9,,,,,,,,,,230,250,272.5,272.5,272.5,D,No
1,Raw,125,Andrey Bogatyryov,Андрей Богатырёв,M,Гантеля,1960-07-10,Pro Masters 55-59,111.3,,,,,,,,,,-110,120,130,130,130,D,No
1,Raw,125,Egor Golubkin,Егор Голубкин,M,Челябинская область,1992-05-04,Pro Open,119.65,,,,,,,,,,-255,255,-265,255,255,D,No
1,Single-ply,100,Evgeniy Blinkov,Евгений Блинков,M,Гантеля,1987-09-03,Pro Open,100,,,,,,,,,,-307.5,307.5,-335,307.5,307.5,D,No
1,Multi-ply,75,Anatoliy Glazunov,Анатолий Глазунов,M,Михайловск,1972-02-09,Pro Masters 45-49,73.5,,,,,,,,,,220,240,250,250,250,D,No
1,Multi-ply,82.5,Andrey Mitrofanov,Андрей Митрофанов,M,Джим Холл,1978-08-08,Pro Open,81.8,,,,,,,,,,240,265,285,285,285,D,No
1,Multi-ply,110,Vladimir Potapov,Владимир Потапов,M,Курганская область,1954-05-22,Pro Masters 60-64,107.5,,,,,,,,,,180,190,200,200,200,D,No
1,Wraps,67.5,Larisa Fedyanovich,Лариса Федянович,F,Гантеля,1974-05-25,Pro Masters 40-44,63.1,60,65,-70,65,42.5,-45,,,42.5,75,82.5,-90,82.5,190,SBD,No
1,Wraps,67.5,Vladimir Afonin,Владимир Афонин,M,Санкт-Петербург,1945-06-09,Pro Masters 70-74,67.05,105,115,120,120,85,90,-92.5,,90,160,170,175,175,385,SBD,No
1,Wraps,75,Sergey Mikhaylev,Сергей Михайлев,M,Брайт Фит,1996-06-28,Pro Juniors 20-23,73.3,-175,175,185,185,110,-120,-120,,110,210,220,225,225,520,SBD,No
1,Wraps,82.5,Egor Morozov,Егор Морозов,M,Брайт Фит,1995-09-15,Pro Juniors 20-23,79.8,130,140,145,145,-70,75,80,,80,170,-190,-190,170,395,SBD,No
DQ,Wraps,100,Evgeniy Shishkin,Евгений Шишкин,M,Гантеля,1973-06-16,Pro Masters 40-44,93.6,180,190,-200,190,-140,-150,-152.5,,,-180,,,,,SBD,No
1,Wraps,100,Vadim Shestakov,Вадим Шестаков,M,Екатеринбург,1962-04-20,Pro Masters 50-54,97.05,180,195,200,200,125,130,135,,135,200,215,-225,215,550,SBD,No
1,Wraps,110,Vladislav Abdrakhmanov,Владислав Абдрахманов,M,Башкортостан,1996-10-20,Pro Juniors 20-23,109.8,-245,250,260,260,175,185,-190,,185,260,270,-280,270,715,SBD,No
2,Wraps,110,Denis Ivanov,Денис Иванов,M,Три Икс,1993-07-18,Pro Juniors 20-23,106.2,200,225,-240,225,175,180,-185,,180,220,237.5,250,250,655,SBD,No
1,Single-ply,90,Andrey Perminov,Андрей Перминов,M,Джим Холл,1967-11-06,Pro Masters 45-49,84.25,180,190,200,200,110,125,135,,135,190,202.5,207.5,207.5,542.5,SBD,No
1,Single-ply,110,Oleg Pisachenko,Олег Писаченко,M,Джим Холл,1965-11-12,Pro Masters 50-54,108.6,220,240,255,255,-220,220,-230,,220,235,250,-262.5,250,725,SBD,No
1,Single-ply,140,Anatoliy Pimurzin,Анатолий Пимурзин,M,Medwed Barbell,1983-10-22,Pro Open,128.7,270,285,300,300,170,-180,200,,200,270,285,-300,285,785,SBD,No
1,Single-ply,75,Aleksandr Ponedelin,Александр Понеделин,M,ХМАО,1950-06-06,Pro Masters 65-69,71.7,210,-220,220,220,-80,-80,80,,80,207.5,215,-222.5,215,515,SBD,No
1,Single-ply,100,Evgeniy Blinkov,Евгений Блинков,M,Гантеля,1987-09-03,Pro Open,100,-327.5,-337.5,337.5,337.5,217.5,227.5,-232.5,,227.5,-307.5,307.5,-335,307.5,872.5,SBD,No
1,Multi-ply,82.5,Andrey Mitrofanov,Андрей Митрофанов,M,Джим Холл,1978-08-08,Pro Open,81.8,350,-375,375,375,180,-190,190,,190,240,265,285,285,850,SBD,No
DQ,Multi-ply,110,Vladimir Potapov,Владимир Потапов,M,Курганская область,1954-05-22,Pro Masters 60-64,107.5,-240,-240,-240,,-165,,,,,,,,,,SBD,No
1,Multi-ply,110,Maksim Chernikov,Максим Черников,M,Брайт Фит,1989-07-05,Pro Open,106.55,320,-340,-350,320,-240,240,-250,,240,260,-280,-280,260,820,SBD,No
1,Raw,67.5,Elena Tryastsina,Елена Трясцина,F,Брайт Фит,1975-08-24,Pro Masters 40-44,65.8,,,,,50,55,-60,,55,,,,,55,B,No
2,Raw,67.5,Larisa Fedyanovich,Лариса Федянович,F,Гантеля,1974-05-26,Pro Masters 40-44,63.1,,,,,42.5,-45,-45,,42.5,,,,,42.5,B,No
1,Raw,52,Vladimir Radostev,Владимир Радостев,M,ХМАО,1998-06-25,Pro Teen 18-19,50.2,,,,,45,-62.5,,,45,,,,,45,B,No
1,Raw,67.5,Vladimir Afonin,Владимир Афонин,M,Санкт-Петербург,1945-06-09,Pro Masters 70-74,67.05,,,,,85,90,-92.5,,90,,,,,90,B,No
1,Raw,82.5,Igor Apakshin,Игорь Апакшин,M,Новоуральск,1964-03-30,Pro Masters 50-54,80.3,,,,,110,120,-130,,120,,,,,120,B,No
1,Raw,82.5,Kirill Terentev,Кирилл Терентьев,M,Джим Холл,2001-01-29,Pro Teen 16-17,76.6,,,,,87.5,92.5,95,,95,,,,,95,B,No
1,Raw,90,Aleksey Pogodin,Алексей Погодин,M,Пермский край,1975-08-15,Pro Masters 40-44,88,,,,,180,182.5,185,,185,,,,,185,B,No
1,Raw,90,Sergey Balandin,Сергей Баландин,M,Пермский край,1984-12-14,Pro Open,88.25,,,,,185,-195,-195,,185,,,,,185,B,No
1,Raw,100,Maksim Popovskikh,Максим Поповских,M,Тюмень,1996-07-25,Pro Juniors 20-23,99.7,,,,,135,145,155,,155,,,,,155,B,No
2,Raw,100,Egor Bogdanov,Егор Богданов,M,ХМАО,1995-07-05,Pro Juniors 20-23,93.1,,,,,90,110,115,,115,,,,,115,B,No
1,Raw,100,Andrey Zakovryashin,Андрей Заковряшин,M,ХМАО,1977-03-20,Pro Masters 40-44,96.8,,,,,185,192.5,-195,,192.5,,,,,192.5,B,No
2,Raw,100,Aleksey Malafeev,Алексей Малафеев,M,Новоуральск,1975-05-05,Pro Masters 40-44,90.1,,,,,120,130,-140,,130,,,,,130,B,No
1,Raw,100,Valeriy Snigiryov,Валерий Снигирёв,M,Тюмень,1969-05-07,Pro Masters 45-49,99,,,,,180,-185,-185,,180,,,,,180,B,No
1,Raw,100,Sergey Shcherbakov,Сергей Щербаков,M,ХМАО,1957-05-18,Pro Masters 55-59,98.8,,,,,125,130,135,,135,,,,,135,B,No
1,Raw,100,Dmitriy Tsygurov,Дмитрий Цыгуров,M,Золотой Тигр,1986-04-29,Pro Open,96.6,,,,,195,-202.5,-202.5,,195,,,,,195,B,No
2,Raw,100,Anton Stanislavchuk,Антон Станиславчук,M,Новоуральск,1987-11-24,Pro Open,96.4,,,,,162.5,172.5,182.5,,182.5,,,,,182.5,B,No
1,Raw,110,Aleksandr Berlo,Александр Берло,M,Казахстан,1976-01-06,Pro Masters 40-44,110,,,,,202.5,205,207.5,,207.5,,,,,207.5,B,No
2,Raw,110,Andrey Fedortsov,Андрей Федорцов,M,ХМАО,1974-10-16,Pro Masters 40-44,103.8,,,,,190,,,,190,,,,,190,B,No
3,Raw,110,Aleksandr Mikov,Александр Миков,M,Пермский край,1974-12-12,Pro Masters 40-44,105.5,,,,,150,160,-167.5,,160,,,,,160,B,No
1,Raw,110,Aleksandr Iglin,Александр Иглин,M,Каменск-Уральский,1969-04-03,Pro Masters 45-49,103.9,,,,,145,150,,,150,,,,,150,B,No
2,Raw,110,Evgeniy Byzov,Евгений Бызов,M,Екатеринбург,1970-10-06,Pro Masters 45-49,109.6,,,,,125,140,-150,,140,,,,,140,B,No
1,Raw,110,Vladimir Petrov,Владимир Петров,M,Пермский край,1966-06-17,Pro Masters 50-54,101.5,,,,,150,160,,,160,,,,,160,B,No
1,Raw,110,Vladimir Lopin,Владимир Лопин,M,Гантеля,1983-01-21,Pro Open,109.8,,,,,210,220,230,,230,,,,,230,B,No
2,Raw,110,Aleksandr Berlo,Александр Берло,M,Казахстан,1976-01-06,Pro Open,110,,,,,202.5,205,207.5,,207.5,,,,,207.5,B,No
3,Raw,110,Mikhail Mikhnyuk,Михаил Михнюк,M,Новоуральск,1984-09-19,Pro Open,107.25,,,,,175,185,195,,195,,,,,195,B,No
4,Raw,110,Sergey Nyagulov,Сергей Нягулов,M,ХМАО,1983-03-19,Pro Open,107.3,,,,,-165,165,175,,175,,,,,175,B,No
DQ,Raw,110,Sergey Kazymov,Сергей Казымов,M,Олимпия Джим,1981-08-31,Pro Open,108.7,,,,,-190,-190,,,,,,,,,B,No
1,Raw,125,Maksim Kireev,Максим Киреев,M,Тюмень,1976-08-01,Pro Masters 40-44,110.5,,,,,160,170,-180,,170,,,,,170,B,No
DQ,Raw,125,Mikael Rzaev,Микаэл Рзаев,M,Гантеля,1975-11-17,Pro Masters 40-44,118.8,,,,,-220,-220,-220,,,,,,,,B,No
1,Raw,125,Evgeniy Korovin,Евгений Коровин,M,Екатеринбург,1969-10-02,Pro Masters 45-49,119,,,,,175,180,185,,185,,,,,185,B,No
1,Raw,125,Maksim Khozyashev,Максим Хозяшев,M,Курганская область,1983-12-11,Pro Open,120,,,,,195,202.5,-210,,202.5,,,,,202.5,B,No
2,Raw,125,Aleksey Akimov,Алексей Акимов,M,Екатеринбург,1986-10-14,Pro Open,115.15,,,,,185,-195,-195,,185,,,,,185,B,No
DQ,Unlimited,67.5,Elena Solovykh,Елена Соловых,F,Джим Холл,1977-01-15,Pro Masters 40-44,66.2,,,,,-55,-55,-55,,,,,,,,B,No
1,Unlimited,75,Anatoliy Glazunov,Анатолий Глазунов,M,Михайловск,1972-02-09,Pro Masters 45-49,73.65,,,,,180,190,-217.5,,190,,,,,190,B,No
DQ,Unlimited,90,Sergey Konovalov #4,Сергей Коновалов,M,Томская область,1969-03-22,Pro Masters 45-49,90,,,,,-202.5,-202.5,-202.5,,,,,,,,B,No
1,Unlimited,90,Aleksandr Rukavishnikov,Александр Рукавишников,M,Гантеля,1991-06-26,Pro Open,90,,,,,-302.5,302.5,-325,,302.5,,,,,302.5,B,No
1,Unlimited,100,Aleksandr Portnoy,Александр Портной,M,Екатеринбург,1987-12-13,Pro Open,94.4,,,,,220,230,235,,235,,,,,235,B,No
2,Unlimited,100,Ilya Kunygin,Илья Куныгин,M,Тюмень,1989-12-08,Pro Open,96.3,,,,,-230,230,-240,,230,,,,,230,B,No
1,Unlimited,110,Andrey Fedortsov,Андрей Федорцов,M,ХМАО,1974-10-16,Pro Masters 40-44,103.8,,,,,270,-290,-290,,270,,,,,270,B,No
1,Unlimited,110,Vyacheslav Filatov,Вячеслав Филатов,M,Гантеля,1962-12-15,Pro Masters 50-54,106,,,,,252.5,265,275,,275,,,,,275,B,No
1,Unlimited,60,Olga Sharafutdinova,Ольга Шарафутдинова,F,Гантеля,1974-07-24,Amateur Masters 40-44,58.2,,,,,60,-72.5,-72.5,,60,,,,,60,B,Yes
1,Unlimited,67.5,Vladislav Trubin,Владислав Трубин,M,Курганская область,1993-02-14,Amateur Open,66.5,,,,,120,140,145,,145,,,,,145,B,Yes
1,Unlimited,75,Aleksandr Pribavkin,Александр Прибавкин,M,Гантеля,1988-10-22,Amateur Open,68,,,,,160,-170,-170,,160,,,,,160,B,Yes
1,Unlimited,82.5,Evgeniy Bogatyryov,Евгений Богатырёв,M,Гантеля,1979-01-18,Amateur Open,82.3,,,,,225,-237.5,-237.5,,225,,,,,225,B,Yes
2,Unlimited,82.5,Eduard Shafiev,Эдуард Шафиев,M,Джим Холл,1984-05-06,Amateur Open,80.8,,,,,135,145,-152.5,,145,,,,,145,B,Yes
1,Unlimited,90,Maksim Vorobyov,Максим Воробьёв,M,Михайловск,1995-03-23,Amateur Juniors 20-23,89,,,,,-210,210,217.5,,217.5,,,,,217.5,B,Yes
1,Unlimited,90,Aleksey Toropov,Алексей Торопов,M,Джим Холл,1975-05-24,Amateur Masters 40-44,88.6,,,,,150,-165,165,,165,,,,,165,B,Yes
1,Unlimited,90,Sergey Konovalov #4,Сергей Коновалов,M,Томская область,1969-03-22,Amateur Masters 45-49,90,,,,,172.5,182.5,192.5,,192.5,,,,,192.5,B,Yes
1,Unlimited,90,Aleksandr Ustyuzhanin,Александр Устюжанин,M,Гантеля,1981-10-04,Amateur Open,87.4,,,,,-200,217.5,225,,225,,,,,225,B,Yes
1,Unlimited,100,Aleksandr Kopytov,Александр Копытов,M,Михайловск,1996-12-18,Amateur Juniors 20-23,96.2,,,,,190,202.5,210,,210,,,,,210,B,Yes
2,Unlimited,100,Dmitriy Lapekhin,Дмитрий Лапехин,M,Гантеля,1993-05-09,Amateur Juniors 20-23,97.3,,,,,200,210,-220,,210,,,,,210,B,Yes
1,Unlimited,100,Roman Zhuravlyov,Роман Журавлёв,M,Джим Холл,1982-03-07,Amateur Open,90.4,,,,,170,180,185,,185,,,,,185,B,Yes
1,Unlimited,110,Aleksandr Baranov,Александр Баранов,M,Гантеля,1985-11-19,Amateur Open,105.9,,,,,290,300,307.5,,307.5,,,,,307.5,B,Yes
2,Unlimited,110,Ivan Pavlenko,Иван Павленко,M,Гантеля,1985-01-04,Amateur Open,107.2,,,,,-180,180,200,,200,,,,,200,B,Yes
1,Unlimited,125,Aleksandr Sibirtsev,Александр Сибирцев,M,Гантеля,1981-10-16,Amateur Open,114.8,,,,,-270,270,-307.5,,270,,,,,270,B,Yes
2,Unlimited,125,Dmitriy Moiseev,Дмитрий Моисеев,M,Тюмень,1978-11-28,Amateur Open,118.4,,,,,170,-190,-200,,170,,,,,170,B,Yes
1,Unlimited,140,Vyacheslav Tyazhelnikov,Вячеслав Тяжельников,M,Курганская область,1950-08-18,Amateur Masters 65-69,135.35,,,,,190,-210,-210,,190,,,,,190,B,Yes
1,Unlimited,140,Vyacheslav Tyazhelnikov,Вячеслав Тяжельников,M,Курганская область,1950-08-18,Amateur Open,135.35,,,,,190,-210,-210,,190,,,,,190,B,Yes
1,Single-ply,56,Natalya Klemenko,Наталья Клеменко,F,Тюмень,1991-02-28,Amateur Open,55.2,,,,,-55,55,-62.5,,55,,,,,55,B,Yes
1,Single-ply,67.5,Sergey Lysyakov,Сергей Лысяков,M,Гантеля,1980-04-17,Amateur Open,66.8,,,,,160,167.5,172.5,,172.5,,,,,172.5,B,Yes
1,Single-ply,82.5,Pyotr Borisov,Пётр Борисов,M,Джим Холл,1981-08-19,Amateur Open,82.15,,,,,185,192.5,-200,,192.5,,,,,192.5,B,Yes
2,Single-ply,82.5,Aleksandr Gutsevich,Александр Гуцевич,M,Экстрим,1966-09-25,Amateur Open,82.4,,,,,170,-177.5,-177.5,,170,,,,,170,B,Yes
1,Single-ply,90,Aleksandr Rudakov,Александр Рудаков,M,Джим Холл,1990-09-09,Amateur Open,89.5,,,,,200,210,-220,,210,,,,,210,B,Yes
2,Single-ply,90,Nikolay Vasyutin,Николай Васютин,M,СЛ Фитнес,1990-01-23,Amateur Open,88.5,,,,,-170,180,-190,,180,,,,,180,B,Yes
1,Single-ply,100,Mikhail Yakovenko,Михаил Яковенко,M,Медведь Барбелл,1993-09-04,Amateur Juniors 20-23,96,,,,,190,-200,,,190,,,,,190,B,Yes
1,Single-ply,125,Dmitriy Osintsev,Дмитрий Осинцев,M,Богатырь,1969-06-30,Amateur Masters 45-49,120.4,,,,,210,225,230,,230,,,,,230,B,Yes
1,Multi-ply,110,Nikolay Drozhzhilov,Николай Дрожжилов,M,Медведь Барбелл,1986-08-28,Amateur Open,108.8,,,,,260,270,-290,,270,,,,,270,B,Yes
1,Multi-ply,67.5,Alyona Baturina,Алёна Батурина,F,Медведь Барбелл,1994-10-03,Pro Juniors 20-23,66.9,,,,,120,-130,130,,130,,,,,130,B,No
1,Multi-ply,100,Sergey Maksimov,Сергей Максимов,M,Магнитогорск,1987-04-25,Pro Open,99.6,,,,,195,-207.5,-207.5,,195,,,,,195,B,No
1,Multi-ply,110,Vladimir Potapov,Владимир Потапов,M,Курганская область,1954-05-22,Pro Masters 60-64,107.5,,,,,-165,165,,,165,,,,,165,B,No
1,Multi-ply,125,Nikolay Pyshmintsev,Николай Пышминцев,M,Гантеля,1981-01-04,Pro Open,125,,,,,320,,,,320,,,,,320,B,No
1,Raw,44,Elena Blagovestova,Елена Благовестова,F,Карпинск,1973-07-05,Amateur Masters 40-44,41.7,,,,,37.5,42.5,-45,,42.5,,,,,42.5,B,Yes
1,Raw,44,Ekaterina Sklyar,Екатерина Скляр,F,Колизей,1978-06-15,Amateur Open,43.4,,,,,35,-40,40,,40,,,,,40,B,Yes
1,Raw,48,Tatyana Gromada,Татьяна Громада,F,Екатеринбург,1982-02-24,Amateur Open,47.55,,,,,-55,55,-60,,55,,,,,55,B,Yes
2,Raw,48,Anna Kokurkina,Анна Кокуркина,F,Тюмень,1983-06-24,Amateur Open,46.55,,,,,47.5,50,-55,,50,,,,,50,B,Yes
1,Raw,48,Elizaveta Kropacheva,Елизавета Кропачева,F,Богатырь,2001-02-13,Amateur Teen 16-17,48,,,,,37.5,-40,45,,45,,,,,45,B,Yes
1,Raw,52,Nadezhda Klobukova,Надежда Клобукова,F,Екатеринбург,1993-05-25,Amateur Juniors 20-23,51,,,,,65,-67.5,-67.5,,65,,,,,65,B,Yes
2,Raw,52,Mariya Zankova,Мария Занкова,F,Челябинская область,1993-08-29,Amateur Juniors 20-23,51.8,,,,,57.5,60,-62.5,,60,,,,,60,B,Yes
1,Raw,52,Ekaterina Poluektova,Екатерина Полуэктова,F,Тюмень,1989-03-09,Amateur Open,51,,,,,60,65,-67.5,,65,,,,,65,B,Yes
1,Raw,56,Marina Kolesnikova,Марина Колесникова,F,Шадринск,1975-04-25,Amateur Masters 40-44,54.6,,,,,45,50,52.5,,52.5,,,,,52.5,B,Yes
1,Raw,56,Inna Loskutova,Инна Лоскутова,F,Колизей,1964-10-05,Amateur Masters 50-54,55,,,,,-40,-40,40,,40,,,,,40,B,Yes
1,Raw,56,Tanzilya Ivantsova,Танзиля Иванцова,F,Тюмень,1989-02-19,Amateur Open,55,,,,,60,65,-72.5,,65,,,,,65,B,Yes
2,Raw,56,Anastasiya Akhmetshina,Анастасия Ахметшина,F,Челябинская область,1991-12-30,Amateur Open,55.85,,,,,50,-55,-55,,50,,,,,50,B,Yes
1,Raw,60,Anna Zavyalova,Анна Завьялова,F,Колизей,1975-08-26,Amateur Masters 40-44,57.65,,,,,75,-77.5,77.5,,77.5,,,,,77.5,B,Yes
2,Raw,60,Irina Emelyanova,Ирина Емельянова,F,Колизей,1975-03-20,Amateur Masters 40-44,59.35,,,,,-65,65,67.5,,67.5,,,,,67.5,B,Yes
3,Raw,60,Olga Sharafutdinova,Ольга Шарафутдинова,F,Гантеля,1974-07-24,Amateur Masters 40-44,58.2,,,,,45,47.5,50,,50,,,,,50,B,Yes
DQ,Raw,60,Elena Bastrakova,Елена Бастракова,F,Ивдель,1970-01-31,Amateur Masters 45-49,58.8,,,,,-65,-65,-65,,,,,,,,B,Yes
1,Raw,60,Anna Zavyalova,Анна Завьялова,F,Колизей,1975-08-26,Amateur Open,57.65,,,,,75,-77.5,77.5,,77.5,,,,,77.5,B,Yes
2,Raw,60,Mariya Getashvili,Мария Геташвили,F,Колизей,1980-06-18,Amateur Open,58.8,,,,,67.5,-70,-70,,67.5,,,,,67.5,B,Yes
3,Raw,60,Olga Karpinskaya,Ольга Карпинская,F,Брайт Фит,1986-12-26,Amateur Open,58.7,,,,,55,-60,-60,,55,,,,,55,B,Yes
1,Raw,67.5,Irina Savkova,Ирина Савкова,F,СЛ Фитнес,1970-11-06,Amateur Masters 45-49,61.35,,,,,52.5,-57.5,57.5,,57.5,,,,,57.5,B,Yes
1,Raw,67.5,Natalya Khomchenko,Наталья Хомченко,F,ХМАО,1990-12-26,Amateur Open,66.45,,,,,70,72.5,75,,75,,,,,75,B,Yes
2,Raw,67.5,Natalya Trofimova,Наталья Трофимова,F,Челябинская область,1992-05-14,Amateur Open,66.9,,,,,65,72.5,-75,,72.5,,,,,72.5,B,Yes
DQ,Raw,67.5,Elena Safonova,Елена Сафонова,F,Челябинская область,1990-01-29,Amateur Open,67.5,,,,,-100,,,,,,,,,,B,Yes
1,Raw,67.5,Vladislava Myslovskaya,Владислава Мысловская,F,Челябинская область,2008-01-07,Amateur Teen 13,64,,,,,75,-85,,,75,,,,,75,B,Yes
1,Raw,82.5,Svetlana Nekrasova,Светлана Некрасова,F,Колизей,1963-03-02,Amateur Masters 50-54,79.3,,,,,50,55,-60,,55,,,,,55,B,Yes
1,Raw,44,Vladislav Brezgin,Владислав Брезгин,M,Гантеля,2008-11-10,Amateur Teen 13,26.1,,,,,15,22.5,-25,,22.5,,,,,22.5,B,Yes
DQ,Raw,44,Lev Mitrofanov,Лев Митрофанов,M,Джим Холл,2008-07-09,Amateur Teen 13,29,,,,,-20,,,,,,,,,,B,Yes
1,Raw,56,Ivan Mikheev,Иван Михеев,M,Камышлов,1994-07-28,Amateur Juniors 20-23,55.6,,,,,115,125,-130,,125,,,,,125,B,Yes
1,Raw,56,Baturkhan Mukhametov,Батурхан Мухаметов,M,Кыргызстан,1999-07-13,Amateur Open,56,,,,,135,140,142.5,-145,142.5,,,,,142.5,B,Yes
2,Raw,56,Igor Ershov,Игорь Ершов,M,Арти,1977-04-20,Amateur Open,53,,,,,67.5,72.5,-75,,72.5,,,,,72.5,B,Yes
1,Raw,56,Baturkhan Mukhametov,Батурхан Мухаметов,M,Кыргызстан,1999-07-13,Amateur Teen 16-17,56,,,,,135,140,142.5,-145,142.5,,,,,142.5,B,Yes
1,Raw,60,Yuriy Lebedev,Юрий Лебедев,M,Атлант,1938-06-26,Amateur Masters 75-79,57.6,,,,,60,65,67.5,,67.5,,,,,67.5,B,Yes
1,Raw,60,Roman Zakirov #1,Роман Закиров,M,Челябинская область,1992-05-24,Amateur Open,60,,,,,115,122.5,-130,,122.5,,,,,122.5,B,Yes
2,Raw,60,Sergey Martynov,Сергей Мартынов,M,Колизей,1985-02-19,Amateur Open,58.9,,,,,75,80,-85,,80,,,,,80,B,Yes
1,Raw,60,Egor Zakharov,Егор Захаров,M,Михайловск,2000-08-24,Amateur Teen 16-17,59.9,,,,,-90,90,100,,100,,,,,100,B,Yes
1,Raw,67.5,Vadim Shakirov,Вадим Шакиров,M,Тюмень,1994-12-01,Amateur Juniors 20-23,66,,,,,110,-120,120,,120,,,,,120,B,Yes
1,Raw,67.5,Aleksandr Amutnykh,Александр Амутных,M,Карпинск,1973-03-25,Amateur Masters 40-44,64.2,,,,,55,60,65,,65,,,,,65,B,Yes
1,Raw,67.5,Sergey Luzin,Сергей Лузин,M,Пермский край,1954-04-30,Amateur Masters 60-64,64.6,,,,,130,-132.5,-132.5,,130,,,,,130,B,Yes
1,Raw,67.5,Anatoliy Zhukov,Анатолий Жуков,M,Уральский Атлет,1984-04-27,Amateur Open,65.9,,,,,115,120,-125,,120,,,,,120,B,Yes
2,Raw,67.5,Aleksandr Volgin,Александр Волгин,M,Екатеринбург,1979-01-24,Amateur Open,64.4,,,,,107.5,-110,-110,,107.5,,,,,107.5,B,Yes
3,Raw,67.5,Dmitriy Shcherbakov,Дмитрий Щербаков,M,Арти,1980-07-05,Amateur Open,61.9,,,,,-72.5,72.5,-75,,72.5,,,,,72.5,B,Yes
1,Raw,67.5,Aleksey Gabov,Алексей Габов,M,Екатеринбург,2001-09-13,Amateur Teen 14-15,65.1,,,,,85,87.5,90,,90,,,,,90,B,Yes
2,Raw,67.5,Artyom Saptsyn,Артём Сапцын,M,Гантеля,2005-02-20,Amateur Teen 13,66,,,,,22.5,27.5,-30,,27.5,,,,,27.5,B,Yes
1,Raw,67.5,Kirill Cherednichenko,Кирилл Чередниченко,M,Башкортостан,2000-08-08,Amateur Teen 16-17,66.95,,,,,110,120,127.5,,127.5,,,,,127.5,B,Yes
2,Raw,67.5,Evgeniy Rukin,Евгений Рукин,M,Гантеля,2000-01-30,Amateur Teen 16-17,65.8,,,,,82.5,87.5,90,,90,,,,,90,B,Yes
3,Raw,67.5,Aleksandr Pomorin,Александр Поморин,M,Гантеля,2000-01-20,Amateur Teen 16-17,65.9,,,,,-67.5,67.5,75,,75,,,,,75,B,Yes
1,Raw,67.5,Pavel Cherneev,Павел Чернеев,M,УГГГУ,1999-03-11,Amateur Teen 18-19,63.9,,,,,110,-112.5,-112.5,,110,,,,,110,B,Yes
1,Raw,75,Fyodor Tarasov,Фёдор Тарасов,M,Екатеринбург,1994-04-25,Amateur Juniors 20-23,74.25,,,,,150,157.5,-160,,157.5,,,,,157.5,B,Yes
2,Raw,75,Pavel Shusharin,Павел Шушарин,M,Брайт Фит,1996-10-23,Amateur Juniors 20-23,73.5,,,,,127.5,137.5,-140,,137.5,,,,,137.5,B,Yes
3,Raw,75,Pavel Beloglazov,Павел Белоглазов,M,Екатеринбург,1994-04-06,Amateur Juniors 20-23,73.3,,,,,117.5,120,125,,125,,,,,125,B,Yes
1,Raw,75,Dmitriy Nekrasov,Дмитрий Некрасов,M,Колизей,1963-06-06,Amateur Masters 50-54,73.8,,,,,120,125,-130,,125,,,,,125,B,Yes
2,Raw,75,Valentin Makarov,Валентин Макаров,M,Челябинская область,1963-03-08,Amateur Masters 50-54,70.25,,,,,-122.5,122.5,,,122.5,,,,,122.5,B,Yes
3,Raw,75,Eduard Kravtsov,Эдуард Кравцов,M,Екатеринбург,1964-10-11,Amateur Masters 50-54,73.3,,,,,-105,105,-115,,105,,,,,105,B,Yes
1,Raw,75,Aleksandr Teplyashin,Александр Тепляшин,M,Колизей,1957-02-01,Amateur Masters 60-64,74.6,,,,,110,115,-117.5,,115,,,,,115,B,Yes
1,Raw,75,Amir Davletshin,Амир Давлетшин,M,Челябинская область,1949-07-04,Amateur Masters 65-69,74.05,,,,,105,110,-112.5,,110,,,,,110,B,Yes
1,Raw,75,Aleksandr Biserov,Александр Бисеров,M,Факел,1943-08-18,Amateur Masters 70-74,75,,,,,60,67.5,-70,,67.5,,,,,67.5,B,Yes
1,Raw,75,Aleksandr Ulyanov,Александр Ульянов,M,Тюмень,1980-06-12,Amateur Open,74.3,,,,,150,-157.5,-157.5,,150,,,,,150,B,Yes
2,Raw,75,Andrey Kucher,Андрей Кучер,M,Екатеринбург,1988-12-22,Amateur Open,72.9,,,,,127.5,132.5,-137.5,,132.5,,,,,132.5,B,Yes
3,Raw,75,Daniil Morozov,Даниил Морозов,M,Колизей,1986-12-30,Amateur Open,74.2,,,,,127.5,132.5,-137.5,,132.5,,,,,132.5,B,Yes
4,Raw,75,Danil Spesivtsev,Данил Спесивцев,M,Екатеринбург,1987-09-25,Amateur Open,71.6,,,,,120,125,-130,,125,,,,,125,B,Yes
5,Raw,75,Andrey Kataev,Андрей Катаев,M,Ратиборец,1986-09-09,Amateur Open,74.55,,,,,110,120,-125,,120,,,,,120,B,Yes
6,Raw,75,Dmitriy Yudin,Дмитрий Юдин,M,Колизей,1987-01-05,Amateur Open,73.45,,,,,110,-120,-120,,110,,,,,110,B,Yes
DQ,Raw,75,Pavel Mezentsev,Павел Мезенцев,M,Екатеринбург,1985-04-01,Amateur Open,73.15,,,,,-157.5,-157.5,-157.5,,,,,,,,B,Yes
1,Raw,75,Daniil Manashev,Даниил Манашев,M,Тюмень,2003-12-23,Amateur Teen 13,74.8,,,,,70,75,77.5,,77.5,,,,,77.5,B,Yes
1,Raw,75,Denis Belskiy,Денис Бельский,M,Тюмень,2000-01-25,Amateur Teen 16-17,71.3,,,,,110,115,120,,120,,,,,120,B,Yes
2,Raw,75,Vladimir Kalimbetov,Владимир Калимбетов,M,Гантеля,2000-01-12,Amateur Teen 16-17,69.9,,,,,85,-90,90,,90,,,,,90,B,Yes
1,Raw,75,Andrey Buravtsov,Андрей Буравцов,M,Тюмень,1997-04-26,Amateur Teen 18-19,70.5,,,,,110,117.5,120,,120,,,,,120,B,Yes
1,Raw,82.5,Vladimir Khodeev,Владимир Ходеев,M,Челябинская область,1995-09-05,Amateur Juniors 20-23,80.7,,,,,130,137.5,142.5,,142.5,,,,,142.5,B,Yes
1,Raw,82.5,Pavel Golubtsov,Павел Голубцов,M,ХМАО,1976-05-04,Amateur Masters 40-44,81.7,,,,,155,162.5,165,,165,,,,,165,B,Yes
2,Raw,82.5,Aleksandr Chemeris,Александр Чемерис,M,Колизей,1973-03-01,Amateur Masters 40-44,81.8,,,,,105,115,-120,,115,,,,,115,B,Yes
1,Raw,82.5,Mikhail Berezin,Михаил Березин,M,Факел,1967-09-13,Amateur Masters 45-49,81.3,,,,,-115,120,-125,,120,,,,,120,B,Yes
2,Raw,82.5,Sergey Tiunov,Сергей Тиунов,M,Колизей,1968-10-08,Amateur Masters 45-49,81.7,,,,,110,117.5,-122.5,,117.5,,,,,117.5,B,Yes
1,Raw,82.5,Yuriy Nikolaev,Юрий Николаев,M,Каменск-Уральский,1962-04-29,Amateur Masters 50-54,81.5,,,,,120,-130,-130,,120,,,,,120,B,Yes
1,Raw,82.5,Vitaliy Zolottsev,Виталий Золотцев,M,Екатеринбург,1960-06-22,Amateur Masters 55-59,81.8,,,,,115,-125,-125,,115,,,,,115,B,Yes
1,Raw,82.5,Sekakuly Babazhanov,Секакулы Бабажанов,M,Пермский край,1955-09-29,Amateur Masters 60-64,81.5,,,,,115,120,122.5,,122.5,,,,,122.5,B,Yes
1,Raw,82.5,Yuriy Gilman,Юрий Гильман,M,Екатеринбург,1951-10-09,Amateur Masters 65-69,81.2,,,,,65,70,-75,,70,,,,,70,B,Yes
1,Raw,82.5,Eldar Tsoriev,Эльдар Цориев,M,Факел,1946-02-17,Amateur Masters 70-74,81.65,,,,,-125,125,-131,,125,,,,,125,B,Yes
1,Raw,82.5,Nikolay Puzhaev,Николай Пужаев,M,Асбест,1935-08-13,Amateur Masters 80+,79.3,,,,,100,-105,-105,,100,,,,,100,B,Yes
1,Raw,82.5,Yuriy Grekov,Юрий Греков,M,Башкортостан,1984-04-02,Amateur Open,82.5,,,,,160,-165,167.5,,167.5,,,,,167.5,B,Yes
2,Raw,82.5,Pavel Golubtsov,Павел Голубцов,M,ХМАО,1976-05-04,Amateur Open,81.7,,,,,155,162.5,165,,165,,,,,165,B,Yes
3,Raw,82.5,Vitaliy Koklyagin,Виталий Коклягин,M,Тюмень,1991-07-24,Amateur Open,81.8,,,,,140,147.5,150,,150,,,,,150,B,Yes
4,Raw,82.5,Anton Akulov,Антон Акулов,M,Лидер,1985-11-28,Amateur Open,82.4,,,,,150,-155,-155,,150,,,,,150,B,Yes
1,Raw,82.5,Ilya Anufriev,Илья Ануфриев,M,Оренбургская область,1997-09-23,Amateur Teen 18-19,81.7,,,,,142.5,147.5,-155,,147.5,,,,,147.5,B,Yes
1,Raw,90,Azamkhon Turaev,Азамхон Тураев,M,Калининец,1995-01-25,Amateur Juniors 20-23,87.5,,,,,170,177.5,180,,180,,,,,180,B,Yes
2,Raw,90,Aleksandr Komoltsev,Александр Комольцев,M,Тюмень,1993-08-30,Amateur Juniors 20-23,83.2,,,,,160,-170,-177.5,,160,,,,,160,B,Yes
3,Raw,90,Egor Bannykh,Егор Банных,M,Гантеля,1994-06-26,Amateur Juniors 20-23,89.9,,,,,145,155,160,,160,,,,,160,B,Yes
4,Raw,90,Artyom Kashlakov,Артём Кашлаков,M,Гантеля,1994-12-05,Amateur Juniors 20-23,89,,,,,145,155,-157.5,,155,,,,,155,B,Yes
5,Raw,90,Kirill Nezavitin,Кирилл Незавитин,M,Курганская область,1993-08-08,Amateur Juniors 20-23,87.3,,,,,135,140,-142.5,,140,,,,,140,B,Yes
1,Raw,90,Aleksandr Redikultsev,Александр Редикульцев,M,Тюмень,1973-11-03,Amateur Masters 40-44,86.95,,,,,-160,160,-165,,160,,,,,160,B,Yes
2,Raw,90,Andrey Novitskiy,Андрей Новицкий,M,Екатеринбург,1975-11-01,Amateur Masters 40-44,89.9,,,,,152.5,160,-165,,160,,,,,160,B,Yes
DQ,Raw,90,Andrey Kuznetsov,Андрей Кузнецов,M,Екатеринбург,1976-02-15,Amateur Masters 40-44,87.25,,,,,-140,-140,-140,,,,,,,,B,Yes
DQ,Raw,90,Ilya Pecherkin,Илья Печеркин,M,Екатеринбург,1975-05-25,Amateur Masters 40-44,89.05,,,,,-162.5,-162.5,-162.5,,,,,,,,B,Yes
1,Raw,90,Nikolay Altukhov,Николай Алтухов,M,Асбест,1968-06-13,Amateur Masters 45-49,89,,,,,120,-125,-125,,120,,,,,120,B,Yes
1,Raw,90,Andrey Noritsin,Андрей Норицын,M,Алапаевск,1963-07-30,Amateur Masters 50-54,89.65,,,,,155,160,162.5,,162.5,,,,,162.5,B,Yes
1,Raw,90,Yuriy Kotov,Юрий Котов,M,Курганская область,1951-06-23,Amateur Masters 65-69,89.6,,,,,125,130,-132.5,,130,,,,,130,B,Yes
2,Raw,90,Nikolay Zenkov,Николай Зенков,M,Асбест,1950-12-18,Amateur Masters 65-69,90,,,,,125,130,-132.5,,130,,,,,130,B,Yes
1,Raw,90,Yuriy Frolov,Юрий Фролов,M,Екатеринбург,1939-02-03,Amateur Masters 75-79,82.9,,,,,50,55,60,,60,,,,,60,B,Yes
1,Raw,90,Ivan Kichigin,Иван Кичигин,M,Башкортостан,1986-01-30,Amateur Open,90,,,,,157.5,165,-170,,165,,,,,165,B,Yes
2,Raw,90,Roman Nechkin,Роман Нечкин,M,Гантеля,1984-05-18,Amateur Open,88,,,,,147.5,157.5,160,,160,,,,,160,B,Yes
3,Raw,90,Vladimir Kozlikhin,Владимир Козлихин,M,Золотой Тигр,1981-07-28,Amateur Open,86.85,,,,,155,-160,-160,,155,,,,,155,B,Yes
4,Raw,90,Vadim Malanov,Вадим Маланов,M,Екатеринбург,1991-04-04,Amateur Open,89.6,,,,,145,-150,155,,155,,,,,155,B,Yes
5,Raw,90,Evgeniy Nosov,Евгений Носов,M,Екатеринбург,1982-05-05,Amateur Open,87.2,,,,,130,135,-140,,135,,,,,135,B,Yes
6,Raw,90,Anatoliy Khvorov,Анатолий Хворов,M,Тавда,1991-08-15,Amateur Open,87.7,,,,,125,-135,-135,,125,,,,,125,B,Yes
1,Raw,90,Eduard Nagornyy,Эдуард Нагорный,M,Гантеля,1998-04-27,Amateur Teen 18-19,90,,,,,160,165,172.5,,172.5,,,,,172.5,B,Yes
2,Raw,90,Vladislav Fakhretdinov,Владислав Фахретдинов,M,Челябинская область,1997-07-18,Amateur Teen 18-19,83.85,,,,,125,130,135,,135,,,,,135,B,Yes
1,Raw,100,Dmitriy Kurok,Дмитрий Курок,M,Каскад,1993-10-06,Amateur Juniors 20-23,94.75,,,,,177.5,185,190,,190,,,,,190,B,Yes
2,Raw,100,Nikita Kuzmitskiy,Никита Кузьмицкий,M,Тюмень,1994-10-17,Amateur Juniors 20-23,96.45,,,,,165,175,182.5,,182.5,,,,,182.5,B,Yes
1,Raw,100,Aleksandr Prozorov,Александр Прозоров,M,Тюмень,1973-12-12,Amateur Masters 40-44,100,,,,,175,185,-190,,185,,,,,185,B,Yes
2,Raw,100,Andrey Pinyazhin,Андрей Пиняжин,M,Екатеринбург,1974-08-08,Amateur Masters 40-44,98.1,,,,,177.5,-195,-195,,177.5,,,,,177.5,B,Yes
1,Raw,100,Viktor Koykov,Виктор Койков,M,Челябинская область,1970-12-27,Amateur Masters 45-49,96.1,,,,,142.5,-147.5,147.5,,147.5,,,,,147.5,B,Yes
1,Raw,100,Pyotr Komarov,Пётр Комаров,M,Каменск-Уральский,1958-10-06,Amateur Masters 55-59,94.7,,,,,150,-160,-160,,150,,,,,150,B,Yes
1,Raw,100,Roman Ivshin,Роман Ившин,M,Пермский край,1978-02-11,Amateur Open,98.35,,,,,185,190,-195,,190,,,,,190,B,Yes
2,Raw,100,Aleksandr Prozorov,Александр Прозоров,M,Тюмень,1973-12-12,Amateur Open,100,,,,,175,185,-190,,185,,,,,185,B,Yes
3,Raw,100,Yuriy Gorbunov,Юрий Горбунов,M,Тюмень,1986-08-16,Amateur Open,96.3,,,,,165,172.5,180,,180,,,,,180,B,Yes
4,Raw,100,Maksim Eryashev,Максим Еряшев,M,Лидер,1991-03-23,Amateur Open,99.35,,,,,180,-187.5,-187.5,,180,,,,,180,B,Yes
5,Raw,100,Andrey Pinyazhin,Андрей Пиняжин,M,Екатеринбург,1974-08-08,Amateur Open,98.1,,,,,177.5,-195,-195,,177.5,,,,,177.5,B,Yes
6,Raw,100,Andrey Zhilin,Андрей Жилин,M,Экстрим,1977-08-16,Amateur Open,100,,,,,152.5,160,-165,,160,,,,,160,B,Yes
7,Raw,100,Mikhail Kozin,Михаил Козин,M,Екатеринбург,1989-11-16,Amateur Open,97.1,,,,,-132.5,142.5,150,,150,,,,,150,B,Yes
8,Raw,100,Igor Zyazin,Игорь Зязин,M,Курганская область,1982-01-23,Amateur Open,93.7,,,,,130,-142.5,142.5,,142.5,,,,,142.5,B,Yes
1,Raw,100,Aleksandr Shishkanov,Александр Шишканов,M,Каскад,1999-10-20,Amateur Teen 16-17,93.55,,,,,120,130,140,,140,,,,,140,B,Yes
2,Raw,100,Nikolay Kriushkin,Николай Криушкин,M,Гантеля,2000-10-26,Amateur Teen 16-17,98.5,,,,,110,115,-120,,115,,,,,115,B,Yes
1,Raw,100,Kirill Puzynya,Кирилл Пузыня,M,Челябинская область,1997-04-05,Amateur Teen 18-19,99.8,,,,,190,200,210,-217.5,210,,,,,210,B,Yes
1,Raw,110,Artyom Avdyukov,Артём Авдюков,M,Драйв Фитнес,1994-05-12,Amateur Juniors 20-23,109.6,,,,,172.5,180,182.5,,182.5,,,,,182.5,B,Yes
1,Raw,110,Sergey Matveev,Сергей Матвеев,M,Москва,1973-04-29,Amateur Masters 40-44,103.9,,,,,-192.5,192.5,197.5,,197.5,,,,,197.5,B,Yes
2,Raw,110,Timur Avlekulov,Тимур Авлекулов,M,Томская область,1974-07-13,Amateur Masters 40-44,104.4,,,,,170,180,185,,185,,,,,185,B,Yes
3,Raw,110,Vyacheslav Chernikov,Вячеслав Черников,M,Ультра Фэмили,1974-12-07,Amateur Masters 40-44,103.65,,,,,135,140,-142.5,,140,,,,,140,B,Yes
4,Raw,110,Anatoliy Kolesnikov,Анатолий Колесников,M,Арти,1975-10-21,Amateur Masters 40-44,102.55,,,,,85,-87.5,87.5,,87.5,,,,,87.5,B,Yes
DQ,Raw,110,Denis Ezhov,Денис Ежов,M,Асбест,1975-08-08,Amateur Masters 40-44,109.3,,,,,-140,-140,-140,,,,,,,,B,Yes
1,Raw,110,Yuriy Bytov,Юрий Бытов,M,Асбест,1949-02-18,Amateur Masters 65-69,110,,,,,135,140,,,140,,,,,140,B,Yes
1,Raw,110,Aleksandr Deryabin,Александр Дерябин,M,Брайт Фит,1978-02-11,Amateur Open,109,,,,,205,210,-212.5,,210,,,,,210,B,Yes
2,Raw,110,Dmitriy Klopkov,Дмитрий Клопков,M,Челябинская область,1989-09-06,Amateur Open,108.95,,,,,-190,195,-200,,195,,,,,195,B,Yes
3,Raw,110,Timofey Sharapov,Тимофей Шарапов,M,Екатеринбург,1978-02-09,Amateur Open,108.95,,,,,155,-167.5,-167.5,,155,,,,,155,B,Yes
4,Raw,110,Vitaliy Onishchenko,Виталий Онищенко,M,Башкортостан,1978-10-06,Amateur Open,108.5,,,,,140,147.5,150,,150,,,,,150,B,Yes
5,Raw,110,Igor Chernikov,Игорь Черников,M,Уральский Атлет,1982-02-27,Amateur Open,109.5,,,,,-142.5,147.5,-152.5,,147.5,,,,,147.5,B,Yes
6,Raw,110,Eduard Bushuev,Эдуард Бушуев,M,Екатеринбург,1980-06-28,Amateur Open,108.3,,,,,-135,135,-142.5,,135,,,,,135,B,Yes
7,Raw,110,Evgeniy Pastukhov,Евгений Пастухов,M,Арти,1985-05-24,Amateur Open,105,,,,,122.5,127.5,132.5,,132.5,,,,,132.5,B,Yes
DQ,Raw,110,Aleksandr Syutter,Александр Сюттер,M,Асбест,1990-04-09,Amateur Open,107.5,,,,,-140,-140,-140,,,,,,,,B,Yes
1,Raw,125,Nikita Karamalak,Никита Карамалак,M,Челябинская область,1994-03-10,Amateur Juniors 20-23,119.4,,,,,170,177.5,-182.5,,177.5,,,,,177.5,B,Yes
1,Raw,125,Aleksey Brednev,Алексей Бреднев,M,Екатеринбург,1969-05-01,Amateur Masters 45-49,121.4,,,,,-170,-170,170,,170,,,,,170,B,Yes
1,Raw,125,Aleksey Mustafin,Алексей Мустафин,M,Гараж Джим,1979-05-20,Amateur Open,122.8,,,,,-185,185,190,,190,,,,,190,B,Yes
2,Raw,125,Anton Mykolnikov,Антон Мыкольников,M,Екатеринбург,1990-02-15,Amateur Open,117.5,,,,,172.5,177.5,-182.5,,177.5,,,,,177.5,B,Yes
3,Raw,125,Vadim Zykov,Вадим Зыков,M,Екатеринбург,1977-09-01,Amateur Open,123.3,,,,,-175,175,-187.5,,175,,,,,175,B,Yes
4,Raw,125,Sergey Solovey,Сергей Соловей,M,Асбест,1979-09-07,Amateur Open,120.4,,,,,-155,155,-175,,155,,,,,155,B,Yes
5,Raw,125,Anton Kazantsev,Антон Казанцев,M,Екатеринбург,1980-11-30,Amateur Open,124,,,,,-137.5,142.5,-147.5,,142.5,,,,,142.5,B,Yes
1,Raw,125,Ivan Svyazhin,Иван Свяжин,M,Тюмень,1997-09-18,Amateur Teen 18-19,118.9,,,,,165,-175,-175,,165,,,,,165,B,Yes
1,Raw,140,Pavel Karamalak,Павел Карамалак,M,Челябинская область,1973-06-30,Amateur Masters 40-44,131.85,,,,,190,-197.5,,,190,,,,,190,B,Yes
DQ,Raw,140,Nikolay Kayky,Николай Кайкы,M,Екатеринбург,1975-11-08,Amateur Masters 40-44,129.5,,,,,-155,-155,,,,,,,,,B,Yes
1,Raw,140,Dmitriy Merenkov,Дмитрий Меренков,M,Екатеринбург,1966-03-23,Amateur Masters 50-54,138.75,,,,,185,195,-197.5,,195,,,,,195,B,Yes
1,Raw,140,Vyacheslav Tyazhelnikov,Вячеслав Тяжельников,M,Курганская область,1950-08-18,Amateur Masters 65-69,135.35,,,,,155,-157.5,,,155,,,,,155,B,Yes
1,Raw,140,Pavel Karamalak,Павел Карамалак,M,Челябинская область,1973-06-30,Amateur Open,131.85,,,,,190,-197.5,,,190,,,,,190,B,Yes
2,Raw,140,Anton Alukhtin,Антон Алухтин,M,Челябинская область,1987-08-03,Amateur Open,134.7,,,,,190,-200,-202.5,,190,,,,,190,B,Yes
3,Raw,140,Vyacheslav Tyazhelnikov,Вячеслав Тяжельников,M,Курганская область,1950-08-18,Amateur Open,135.35,,,,,155,-157.5,,,155,,,,,155,B,Yes
