Division,WeightClassKg,Place,Name,Team,BodyweightKg,Best3SquatKg,Best3BenchKg,Best3DeadliftKg,TotalKg,Equipment,Event,Sex
Boys,51.71,1,Echo Jones,Strawn,51.71,172.37,63.5,217.72,453.59,Single-ply,SBD,M
Boys,51.71,2,Carlos Villanueva,Strawn,51.71,124.74,70.31,127.01,322.05,Single-ply,SBD,M
Boys,55.79,1,Lorenzo Bustamante,Cross Plains,55.07,131.54,65.77,154.22,351.53,Single-ply,SBD,M
Boys,55.79,2,Franklin Lopez,Millsap,55.79,124.74,58.97,127.01,310.71,Single-ply,SBD,M
Boys,,NS,Gabe Boyett,Moran,,,,,,Single-ply,SBD,M
Boys,59.87,1,Stanley Stevens,Ranger,59.87,174.63,92.99,158.76,426.38,Single-ply,SBD,M
Boys,59.87,2,Cesar Galvan,Dublin,56.88,129.27,86.18,154.22,369.68,Single-ply,SBD,M
Boys,59.87,3,Tyler Burchette,Millsap,59.6,92.99,56.7,127.01,276.69,Single-ply,SBD,M
Boys,59.87,DQ,Landry Winters,Millsap,59.69,106.59,,106.59,,Single-ply,SBD,M
Boys,,NS,Juan Rodriguez,Dublin,,,,,,Single-ply,SBD,M
Boys,,NS,Esteban Rodriguez,Dublin,,,,,,Single-ply,SBD,M
Boys,,NS,Jamie Padron,Millsap,,,,,,Single-ply,SBD,M
Boys,67.13,1,Joe Crockett,Cross Plains,61.51,158.76,68.04,140.61,367.41,Single-ply,SBD,M
Boys,67.13,2,Erik Gonzalez #3,Millsap,61.69,115.67,77.11,124.74,317.51,Single-ply,SBD,M
Boys,67.13,3,Marc Anthony Lopez,Gustine,61.6,90.72,79.38,136.08,306.17,Single-ply,SBD,M
Boys,67.13,4,Dalton Lee,Millsap,65.14,113.4,,142.88,256.28,Single-ply,SD,M
Boys,67.13,DQ,Cole Inmon,Millsap,63.23,,61.23,108.86,,Single-ply,SBD,M
Boys,67.13,DQ,Raymond Pacheco,Millsap,60.06,,58.97,142.88,,Single-ply,SBD,M
Boys,,NS,Dalton Zinck,Dublin,,,,,,Single-ply,SBD,M
Boys,,NS,Daniel Rodriguez #5,Dublin,,,,,,Single-ply,SBD,M
Boys,,NS,Randell Laird,Moran,,,,,,Single-ply,SBD,M
Boys,,NS,Tyler Miller,Moran,,,,,,Single-ply,SBD,M
Boys,74.84,1,Matthew Ramirez,Roby,73.84,197.31,140.61,201.85,539.77,Single-ply,SBD,M
Boys,74.84,2,Jacob Riley,Dublin,74.75,195.04,102.06,226.8,523.9,Single-ply,SBD,M
Boys,74.84,3,Jeffery Beatty,Ranger,74.66,188.24,97.52,181.44,467.2,Single-ply,SBD,M
Boys,74.84,4,Jacob Winters,Lingleville,73.39,149.69,88.45,156.49,394.63,Single-ply,SBD,M
Boys,74.84,5,Kolton Davis,Millsap,74.57,158.76,77.11,158.76,394.63,Single-ply,SBD,M
Boys,74.84,6,AJ Escamilla,Gustine,69.85,149.69,61.23,158.76,369.68,Single-ply,SBD,M
Boys,74.84,7,Jayton Richardson,Ranger,72.71,136.08,70.31,154.22,360.61,Single-ply,SBD,M
Boys,74.84,8,Levi Garland,Roby,73.84,124.74,61.23,147.42,333.39,Single-ply,SBD,M
Boys,74.84,9,Gage Schade,Millsap,68.95,102.06,63.5,102.06,267.62,Single-ply,SBD,M
Boys,,NS,Derek Patterson,Dublin,,,,,,Single-ply,SBD,M
Boys,82.1,1,Ricky Bottorf,Millsap,77.29,158.76,83.91,163.29,405.97,Single-ply,SBD,M
Boys,82.1,2,Cristian Vazquez,Dublin,78.2,165.56,95.25,140.61,401.43,Single-ply,SBD,M
Boys,82.1,3,Ryan Russell,Millsap,76.84,127.01,77.11,142.88,347,Single-ply,SBD,M
Boys,82.1,DQ,Angel Cavillo,Millsap,78.56,108.86,,113.4,,Single-ply,SBD,M
Boys,,NS,Tanner Hodgkins,Strawn,,,,,,Single-ply,SBD,M
Boys,,NS,Tate Tabor,Moran,,,,,,Single-ply,SBD,M
Boys,89.81,1,Jeff Morlen,Millsap,86,174.63,111.13,167.83,453.59,Single-ply,SBD,M
Boys,89.81,2,Mason Shipp,Roby,83.91,163.29,83.91,163.29,410.5,Single-ply,SBD,M
Boys,89.81,3,Samual Guerrero,Cross Plains,86.09,158.76,81.65,149.69,390.09,Single-ply,SBD,M
Boys,89.81,4,Michael Crowley,Ranger,88.9,142.88,70.31,138.35,351.53,Single-ply,SBD,M
Boys,89.81,5,Stetson Peyton,Millsap,85.18,111.13,81.65,145.15,337.93,Single-ply,SBD,M
Boys,89.81,6,Bobby Thompson,Millsap,88.09,120.2,81.65,136.08,337.93,Single-ply,SBD,M
Boys,89.81,7,Damien Thomas,Millsap,88.45,97.52,61.23,97.52,256.28,Single-ply,SBD,M
Boys,,NS,Naim Martinez,Cross Plains,,,,,,Single-ply,SBD,M
Boys,,NS,James Briggs,Cross Plains,,,,,,Single-ply,SBD,M
Boys,,NS,Monty Lancaster,Moran,,,,,,Single-ply,SBD,M
Boys,,NS,Ben Steele,Moran,,,,,,Single-ply,SBD,M
Boys,99.79,1,Jessy Villagomez,Roby,99.43,199.58,106.59,190.51,496.68,Single-ply,SBD,M
Boys,99.79,2,Jacob Collier,Cross Plains,94.89,172.37,104.33,163.29,439.98,Single-ply,SBD,M
Boys,99.79,3,Noble Stevens,Millsap,98.7,154.22,102.06,165.56,421.84,Single-ply,SBD,M
Boys,99.79,4,Daniel Aguilar,Millsap,98.7,147.42,92.99,142.88,383.29,Single-ply,SBD,M
Boys,99.79,5,Cole Tipton,Millsap,94.17,145.15,92.99,142.88,381.02,Single-ply,SBD,M
Boys,109.77,1,Sawyer Barron,Ranger,104.33,151.95,83.91,133.81,369.68,Single-ply,SBD,M
Boys,109.77,DQ,Toby Patrick,Millsap,108.32,124.74,,142.88,,Single-ply,SBD,M
Boys,109.77,DQ,Caleb Smith,Roby,106.41,,,,,Single-ply,SBD,M
Boys,,NS,Jose Villalobos,Dublin,,,,,,Single-ply,SBD,M
Boys,,NS,Donavon Moore,Gustine,,,,,,Single-ply,SBD,M
Boys,124.74,1,Ethan Price,Dublin,113.94,235.87,158.76,204.12,598.74,Single-ply,SBD,M
Boys,124.74,2,Trace Boyd,Strawn,116.12,217.72,127.01,217.72,562.45,Single-ply,SBD,M
Boys,124.74,3,John Garcia,Millsap,122.83,183.7,115.67,188.24,487.61,Single-ply,SBD,M
Boys,124.74,4,Leo Garcia,Gustine,113.67,210.92,83.91,170.1,464.93,Single-ply,SBD,M
Boys,124.74,5,Bryen Healey,Dublin,119.02,181.44,90.72,145.15,417.3,Single-ply,SBD,M
Boys,124.74,6,Jacob Flores,Strawn,117.66,170.1,79.38,163.29,412.77,Single-ply,SBD,M
Boys,,NS,Ryan Belew,Dublin,,,,,,Single-ply,SBD,M
