Division,WeightClassKg,Place,Name,Team,BodyweightKg,Best3SquatKg,Best3BenchKg,Best3DeadliftKg,TotalKg,Equipment,Event,Sex
Girls,44.23,1,Mari Lopez,Corpus Christi West Oso,41.28,117.93,54.43,127.01,299.37,Single-ply,SBD,F
Girls,44.23,2,Nadia Rodriguez,Hidalgo Early College,43.64,102.06,49.9,113.4,265.35,Single-ply,SBD,F
Girls,44.23,3,June Ji Peters,Columbus,40.82,99.79,43.09,106.59,249.48,Single-ply,SBD,F
Girls,44.23,4,Celeste Correa,Carrizo Springs,43.27,106.59,38.56,104.33,249.48,Single-ply,SBD,F
Girls,44.23,5,Doralicia Patlan,Lytle,43.64,99.79,45.36,83.91,229.06,Single-ply,SBD,F
Girls,44.23,6,Vielka Rivera,Zapata,43.54,81.65,31.75,108.86,222.26,Single-ply,SBD,F
Girls,44.23,7,Alena Swan,Bandera,43.82,90.72,36.29,95.25,222.26,Single-ply,SBD,F
Girls,44.23,8,Natalie Morgan,Bandera,40.28,72.57,36.29,79.38,188.24,Single-ply,SBD,F
Girls,44.23,9,Sarah O'Canas,Sinton,42.91,68.04,34.02,79.38,181.44,Single-ply,SBD,F
Girls,44.23,DQ,Kaitlyn Gonzalez,Robstown,43.36,,,,,Single-ply,SBD,F
Girls,44.23,DQ,Amri Benitez,Rio Hondo,44.18,113.4,,,,Single-ply,SBD,F
Girls,44.23,DQ,Yaira Velez,Rio Hondo,43.45,,,,,Single-ply,SBD,F
Girls,47.85,1,Aaliyah Garcia,Crystal City,47.17,145.15,72.57,136.08,353.8,Single-ply,SBD,F
Girls,47.85,2,Bri Hernandez,Corpus Christi West Oso,46.81,136.08,63.5,124.74,324.32,Single-ply,SBD,F
Girls,47.85,3,Alyssa Canales #1,Corpus Christi West Oso,47.17,138.35,54.43,124.74,317.51,Single-ply,SBD,F
Girls,47.85,4,Stephany Villarreal,Zapata,46.72,106.59,70.31,122.47,299.37,Single-ply,SBD,F
Girls,47.85,5,Caitlin Watson,Bandera,46.72,117.93,61.23,111.13,290.3,Single-ply,SBD,F
Girls,47.85,6,Xeauna Rodriguez,Bandera,47.45,111.13,65.77,106.59,283.5,Single-ply,SBD,F
Girls,47.85,7,Jamie Nail,Beeville Jones,47.17,108.86,43.09,117.93,269.89,Single-ply,SBD,F
Girls,47.85,8,Alina Escamilla,Poteet,47.81,120.2,47.63,102.06,269.89,Single-ply,SBD,F
Girls,47.85,9,Caitlyn Thrasher,Bandera,45.99,115.67,45.36,104.33,265.35,Single-ply,SBD,F
Girls,47.85,10,Alamar Garcia,Pearsall,47.08,102.06,47.63,111.13,260.82,Single-ply,SBD,F
Girls,47.85,11,Isanelli Martinez,Crystal City,47.26,108.86,40.82,99.79,249.48,Single-ply,SBD,F
Girls,51.94,1,Kaitlyn Pelitire,Beeville Jones,50.62,170.1,97.52,151.95,419.57,Single-ply,SBD,F
Girls,51.94,2,Diamond Teran,Hidalgo Early College,50.17,127.01,68.04,138.35,333.39,Single-ply,SBD,F
Girls,51.94,3,Brea Equia,Crystal City,50.89,127.01,72.57,127.01,326.59,Single-ply,SBD,F
Girls,51.94,4,Yagaira Martinez,Sinton,49.9,127.01,54.43,124.74,306.17,Single-ply,SBD,F
Girls,51.94,5,Raquel Longoria,Kingsville King,51.89,122.47,56.7,122.47,301.64,Single-ply,SBD,F
Girls,51.94,6,Monique Covarrubias,Lytle,50.08,111.13,43.09,140.61,294.84,Single-ply,SBD,F
Girls,51.94,7,Alisha Flores,Beeville Jones,50.35,111.13,70.31,104.33,285.76,Single-ply,SBD,F
Girls,51.94,8,Gabby Moncada,Crystal City,50.8,122.47,49.9,108.86,281.23,Single-ply,SBD,F
Girls,51.94,9,Julie del Bosque,Rio Hondo,51.35,102.06,43.09,117.93,263.08,Single-ply,SBD,F
Girls,51.94,DQ,Misty Garza,Rio Hondo,50.62,,,,,Single-ply,SBD,F
Girls,51.94,DQ,Kimberly Salinas,Bandera,50.8,,,,,Single-ply,SBD,F
Girls,56.02,1,Aly Urrabazo,Crystal City,55.07,172.37,86.18,151.95,410.5,Single-ply,SBD,F
Girls,56.02,2,Joanna Arredondo,Crystal City,55.34,142.88,65.77,136.08,344.73,Single-ply,SBD,F
Girls,56.02,3,Sadie Salazar,Beeville Jones,55.34,129.27,70.31,136.08,335.66,Single-ply,SBD,F
Girls,56.02,4,Maryanna Gavianes,Zapata,54.34,122.47,63.5,142.88,328.85,Single-ply,SBD,F
Girls,56.02,5,AnaLuz Velasquez,Rio Grande City Grulla,53.8,124.74,49.9,136.08,310.71,Single-ply,SBD,F
Girls,56.02,6,Ava Schwarzlose,Geronimo Navarro,55.43,113.4,54.43,127.01,294.84,Single-ply,SBD,F
Girls,56.02,7,Zoey Cappleman,Ingleside,55.07,113.4,61.23,115.67,290.3,Single-ply,SBD,F
Girls,56.02,8,Vivana Lopez,Port Isabel,52.53,117.93,54.43,111.13,283.5,Single-ply,SBD,F
Girls,56.02,DQ,Evelyn Diaz,Kingsville King,52.34,,,,,Single-ply,SBD,F
Girls,56.02,DQ,Emma Tovar,Orange Grove,52.44,,,,,Single-ply,SBD,F
Girls,56.02,DQ,Journey Shoemake,Devine,52.8,,,,,Single-ply,SBD,F
Girls,56.02,DQ,Flona Waid,Bandera,54.98,,,,,Single-ply,SBD,F
Girls,60.1,1,Pracilla Ramirez,Crystal City,57.42,147.42,83.91,127.01,358.34,Single-ply,SBD,F
Girls,60.1,2,Ashley Cuellar,Zapata,59.06,136.08,83.91,127.01,347,Single-ply,SBD,F
Girls,60.1,3,Brianna Charles,Kingsville King,57.52,133.81,70.31,133.81,337.93,Single-ply,SBD,F
Girls,60.1,4,Desori Garcia,Zapata,59.42,113.4,70.31,120.2,303.91,Single-ply,SBD,F
Girls,60.1,5,Shelbie Ridlen,Columbus,59.06,108.86,63.5,127.01,299.37,Single-ply,SBD,F
Girls,60.1,6,Yaritza Mar,Hidalgo Early College,57.88,108.86,61.23,120.2,290.3,Single-ply,SBD,F
Girls,60.1,7,Jackie Perez,Port Isabel,58.24,113.4,47.63,129.27,290.3,Single-ply,SBD,F
Girls,60.1,DQ,Leanna Gonzalez,Rio Hondo,58.6,,,,,Single-ply,SBD,F
Girls,60.1,DQ,Isabella Gonzales,Kingsville King,57.79,,,,,Single-ply,SBD,F
Girls,60.1,DQ,Kelly Huerta,Carrizo Springs,59.06,,,,,Single-ply,SBD,F
Girls,60.1,DQ,Christi'ani Ybarra,Beeville Jones,59.78,,,,,Single-ply,SBD,F
Girls,67.36,1,Andrea Ramirez,Rio Hondo,62.41,183.7,111.13,156.49,451.32,Single-ply,SBD,F
Girls,67.36,2,Kayla Jimenez,Crystal City,66.5,165.56,68.04,154.22,387.82,Single-ply,SBD,F
Girls,67.36,3,Cassandra Rangel,Corpus Christi West Oso,65.86,136.08,68.04,142.88,347,Single-ply,SBD,F
Girls,67.36,4,Karina Guzman,Zapata,64.41,131.54,77.11,122.47,331.12,Single-ply,SBD,F
Girls,67.36,5,Imani Vincent,Geronimo Navarro,65.5,127.01,63.5,136.08,326.59,Single-ply,SBD,F
Girls,67.36,6,Anna Freeman,Bandera,66.22,117.93,77.11,131.54,326.59,Single-ply,SBD,F
Girls,67.36,7,Jillyanna Avalos,Geronimo Navarro,64.14,129.27,61.23,133.81,324.32,Single-ply,SBD,F
Girls,67.36,8,Monique Avalos,Geronimo Navarro,63.5,115.67,74.84,129.27,319.78,Single-ply,SBD,F
Girls,67.36,9,Jessie Ramirez #1,Devine,66.22,120.2,52.16,131.54,303.91,Single-ply,SBD,F
Girls,67.36,DQ,Jennifer Montellano,Crystal City,65.86,,,,,Single-ply,SBD,F
Girls,67.36,DQ,Andrea Montes,Zapata,66.32,140.61,86.18,,,Single-ply,SBD,F
Girls,67.36,DQ,Mikayla Rodriguez,Rio Hondo,65.23,111.13,,,,Single-ply,SBD,F
Girls,75.07,1,Kianna Lara,Crystal City,73.39,192.78,115.67,154.22,462.66,Single-ply,SBD,F
Girls,75.07,2,Julianna Barrera,Port Isabel,67.68,185.97,88.45,158.76,433.18,Single-ply,SBD,F
Girls,75.07,3,Desiree Gonzales,Beeville Jones,73.48,163.29,86.18,147.42,396.89,Single-ply,SBD,F
Girls,75.07,4,Tori Contreras,Beeville Jones,70.85,154.22,70.31,170.1,394.63,Single-ply,SBD,F
Girls,75.07,5,Haylee Lasiter,Crystal City,72.76,167.83,70.31,142.88,381.02,Single-ply,SBD,F
Girls,75.07,6,Karen Villanueva,Rio Hondo,72.57,151.95,74.84,147.42,374.21,Single-ply,SBD,F
Girls,75.07,7,Ariana Camarillo,Carrizo Springs,73.57,145.15,68.04,147.42,360.61,Single-ply,SBD,F
Girls,75.07,8,Odalys Jeronimo,Hidalgo Early College,71.12,136.08,68.04,136.08,340.19,Single-ply,SBD,F
Girls,75.07,9,Desiree Moncevaiz,Raymondville,73.03,136.08,56.7,142.88,335.66,Single-ply,SBD,F
Girls,75.07,10,Virginia Galvan,La Feria,73.39,131.54,61.23,136.08,328.85,Single-ply,SBD,F
Girls,75.07,11,Madelyn Galvan,Port Isabel,68.86,133.81,61.23,124.74,319.78,Single-ply,SBD,F
Girls,75.07,DQ,Gabriela Torres,La Feria,72.57,133.81,,,,Single-ply,SBD,F
Girls,82.33,1,Alyssa Alva,Pearsall,81.47,183.7,77.11,176.9,437.72,Single-ply,SBD,F
Girls,82.33,2,Maria Rodriguez,Crystal City,79.29,172.37,102.06,161.03,435.45,Single-ply,SBD,F
Girls,82.33,3,Audrey Gonzales,Geronimo Navarro,80.74,161.03,92.99,174.63,428.64,Single-ply,SBD,F
Girls,82.33,4,Angela Rendon,Hidalgo Early College,81.37,188.24,88.45,151.95,428.64,Single-ply,SBD,F
Girls,82.33,5,Anyssa Barrientes,Rio Hondo,82.33,165.56,88.45,163.29,417.3,Single-ply,SBD,F
Girls,82.33,6,Illea Lugo,Somerset,80.92,199.58,88.45,127.01,415.04,Single-ply,SBD,F
Girls,82.33,7,Amanda Rivera,Poteet,79.11,185.97,65.77,140.61,392.36,Single-ply,SBD,F
Girls,82.33,8,Alexis Resendez,Kingsville King,80.83,156.49,86.18,145.15,387.82,Single-ply,SBD,F
Girls,82.33,9,Lauryn Botello,Beeville Jones,81.74,165.56,102.06,120.2,387.82,Single-ply,SBD,F
Girls,82.33,10,Destiny Sepulveda,Crystal City,78.93,149.69,81.65,142.88,374.21,Single-ply,SBD,F
Girls,82.33,11,Rosita Robles,Zapata,80.74,149.69,72.57,151.95,374.21,Single-ply,SBD,F
Girls,82.33,DQ,Paige Cote,Devine,80.92,145.15,,,,Single-ply,SBD,F
Girls,90.04,1,Katelin Van Dong,Lytle,86,199.58,95.25,192.78,487.61,Single-ply,SBD,F
Girls,90.04,2,Gabriella Patino,Crystal City,86.64,201.85,86.18,167.83,455.86,Single-ply,SBD,F
Girls,90.04,3,Mariana Botello,Beeville Jones,87.91,219.99,102.06,127.01,449.06,Single-ply,SBD,F
Girls,90.04,4,Reva Salazar,Beeville Jones,88.36,174.63,102.06,151.95,428.64,Single-ply,SBD,F
Girls,90.04,5,Ashlea Perales,Rio Hondo,86.18,161.03,99.79,142.88,403.7,Single-ply,SBD,F
Girls,90.04,6,Crystal Garcia,Gonzales,82.74,161.03,68.04,167.83,396.89,Single-ply,SBD,F
Girls,90.04,7,Shannon Aguilar,Crystal City,86.82,151.95,88.45,142.88,383.29,Single-ply,SBD,F
Girls,90.04,8,Alexandra Crayton,Sinton,86.36,136.08,70.31,136.08,342.46,Single-ply,SBD,F
Girls,90.04,9,Kristin Center,Lytle,87.36,145.15,65.77,117.93,328.85,Single-ply,SBD,F
Girls,90.04,10,Khali Key,Devine,83.91,104.33,68.04,140.61,312.98,Single-ply,SBD,F
Girls,90.04,DQ,Jazlynn Lewis,Bandera,84.82,,,,,Single-ply,SBD,F
Girls,90.04,DQ,Gretta Epperson,Pearsall,88.81,154.22,,,,Single-ply,SBD,F
Girls,100.02,1,Amber Ramirez,Beeville Jones,98.25,188.24,127.01,165.56,480.81,Single-ply,SBD,F
Girls,100.02,2,Bethanie Rodriguez,Crystal City,98.79,183.7,111.13,158.76,453.59,Single-ply,SBD,F
Girls,100.02,3,Kaylie Perez,Victoria St. Joseph,96.34,188.24,90.72,167.83,446.79,Single-ply,SBD,F
Girls,100.02,4,Yazmine Garcia,Pearsall,90.36,179.17,83.91,156.49,419.57,Single-ply,SBD,F
Girls,100.02,5,Marlayna Garcia,Zapata,97.52,161.03,83.91,161.03,405.97,Single-ply,SBD,F
Girls,100.02,6,Emily Martinez,Hidalgo Early College,98.52,170.1,86.18,147.42,403.7,Single-ply,SBD,F
Girls,100.02,7,Distiny Ramirez,Pearsall,99.25,161.03,70.31,140.61,371.95,Single-ply,SBD,F
Girls,100.02,8,Juanita Torres,Carrizo Springs,92.71,158.76,77.11,131.54,367.41,Single-ply,SBD,F
Girls,100.02,9,Kaci Rael,Victoria St. Joseph,96.25,158.76,77.11,131.54,367.41,Single-ply,SBD,F
Girls,100.02,10,Morgan Gale,Cuero,92.26,151.95,68.04,145.15,365.14,Single-ply,SBD,F
Girls,100.02,11,Adelina Quintana,Rio Hondo,90.45,138.35,86.18,138.35,362.87,Single-ply,SBD,F
Girls,100.02,DQ,Casey Najar,Rio Hondo,93.53,149.69,,,,Single-ply,SBD,F
Girls,117.71,1,Karina Martinez,Raymondville,107.14,238.14,115.67,165.56,519.36,Single-ply,SBD,F
Girls,117.71,2,Jeannie Flores,Orange Grove,111.04,219.99,106.59,154.22,480.81,Single-ply,SBD,F
Girls,117.71,3,Brandy Gonzales,Rio Hondo,105.32,199.58,108.86,145.15,453.59,Single-ply,SBD,F
Girls,117.71,4,Luz Garcia,Crystal City,113.67,204.12,97.52,131.54,433.18,Single-ply,SBD,F
Girls,117.71,5,Analicia Ramirez,Beeville Jones,115.21,192.78,104.33,136.08,433.18,Single-ply,SBD,F
Girls,117.71,6,Lisa Zuniga,Rio Hondo,104.87,158.76,113.4,136.08,408.23,Single-ply,SBD,F
Girls,117.71,7,Anna Coronado,La Feria,105.87,174.63,68.04,147.42,390.09,Single-ply,SBD,F
Girls,117.71,8,Desiree Perez,La Feria,107.05,149.69,74.84,147.42,371.95,Single-ply,SBD,F
Girls,117.71,9,Ashlyn Weikle,Somerset,103.51,158.76,90.72,111.13,360.61,Single-ply,SBD,F
Girls,117.71,10,Victoria Gonzalez,Carrizo Springs,101.24,151.95,65.77,136.08,353.8,Single-ply,SBD,F
Girls,117.71,11,Sydney Clack,Gonzales,105.78,142.88,56.7,136.08,335.66,Single-ply,SBD,F
Girls,117.71,DQ,Alayna Searcy,Cuero,110.95,181.44,61.23,,,Single-ply,SBD,F
Girls,117.71+,1,Illeana Bosquez,Pleasanton,129.82,183.7,65.77,142.88,392.36,Single-ply,SBD,F
Girls,117.71+,2,Madison Curbow,Pleasanton,123.65,138.35,68.04,129.27,335.66,Single-ply,SBD,F
Girls,117.71+,3,Clarissa Ramirez,Crystal City,118.93,97.52,61.23,108.86,267.62,Single-ply,SBD,F
Girls,117.71+,DQ,Alyssa Silva,Hidalgo Early College,146.96,,,,,Single-ply,SBD,F
