Division,WeightClassKg,Place,Name,Team,BodyweightKg,Best3SquatKg,Best3BenchKg,Best3DeadliftKg,TotalKg,Equipment,Event,Sex,BirthDate
Boys,55.79,1,Lukas Alvarez,Conroe The Woodlands,53.25,97.52,56.7,124.74,278.96,Single-ply,SBD,M,
Boys,59.87,1,Hank Hewgley,Conroe The Woodlands,59.74,142.88,92.99,136.08,371.95,Single-ply,SBD,M,
Boys,67.13,1,Mauricio Kerguelen,Conroe The Woodlands,66.95,174.63,111.13,174.63,460.4,Single-ply,SBD,M,
Boys,67.13,2,Tyler Higgenbotham,Conroe The Woodlands,67.09,179.17,106.59,167.83,453.59,Single-ply,SBD,M,
Boys,67.13,3,Carlos Perez #3,Conroe Grand Oaks,66.22,156.49,102.06,172.37,430.91,Single-ply,SBD,M,
Boys,67.13,4,Noah McClatchey,Conroe Grand Oaks,65.23,151.95,104.33,165.56,421.84,Single-ply,SBD,M,
Boys,67.13,5,Nate Provost,Conroe The Woodlands,65.05,61.23,70.31,151.95,283.5,Single-ply,SBD,M,
Boys,67.13,DQ,Devin Salas,Conroe Grand Oaks,60.51,,65.77,145.15,,Single-ply,SBD,M,
Boys,67.13,DQ,Ryan Johnson,Conroe Grand Oaks,66.54,,117.93,197.31,,Single-ply,SBD,M,
Boys,74.84,1,Will Sere,Conroe Grand Oaks,73.12,219.99,111.13,215.46,546.58,Single-ply,SBD,M,
Boys,74.84,2,Daniel Gil,Conroe The Woodlands,68.22,183.7,133.81,206.38,523.9,Single-ply,SBD,M,
Boys,74.84,3,Weston Tuttle,Conroe The Woodlands,73.84,192.78,113.4,206.38,512.56,Single-ply,SBD,M,
Boys,74.84,4,Keyvalen Johnson,Conroe Oak Ridge,71.4,181.44,97.52,181.44,460.4,Single-ply,SBD,M,
Boys,74.84,5,Drew Griffin,Conroe Grand Oaks,69.04,174.63,92.99,170.1,437.72,Single-ply,SBD,M,
Boys,82.1,1,Nathan Leone,Conroe The Woodlands,80.24,231.33,127.01,219.99,578.33,Single-ply,SBD,M,
Boys,82.1,2,David Bush,Conroe Grand Oaks,80.38,215.46,140.61,195.04,551.11,Single-ply,SBD,M,
Boys,82.1,3,Colton Smith,Conroe The Woodlands,79.29,204.12,120.2,204.12,528.44,Single-ply,SBD,M,
Boys,82.1,4,Jahron Jonas,Conroe Oak Ridge,79.51,183.7,140.61,190.51,514.83,Single-ply,SBD,M,
Boys,99.79,1,Jacob Otano,Conroe The Woodlands,95.84,217.72,122.47,238.14,578.33,Single-ply,SBD,M,
Boys,99.79,2,Alex Martin #2,Conroe The Woodlands,95.66,206.38,138.35,213.19,557.92,Single-ply,SBD,M,
Boys,99.79,3,Colby Albritton,Conroe Grand Oaks,97.79,217.72,117.93,208.65,544.31,Single-ply,SBD,M,
Boys,99.79,4,Jaylon Wyatt,Conroe Oak Ridge,99.52,192.78,154.22,192.78,539.77,Single-ply,SBD,M,
Boys,99.79,5,Ben DelRey,Conroe Oak Ridge,93.58,188.24,111.13,179.17,478.54,Single-ply,SBD,M,
Boys,99.79,6,Relay Adams,Conroe Grand Oaks,94.94,165.56,95.25,185.97,446.79,Single-ply,SBD,M,
Boys,109.77,1,Payton Korolyk,Conroe Grand Oaks,107.5,249.48,183.7,249.48,682.66,Single-ply,SBD,M,
Boys,109.77,2,Jacob Harris,Conroe Oak Ridge,108.95,249.48,154.22,249.48,653.17,Single-ply,SBD,M,
Boys,109.77,3,Jesus Hernandez #4,Conroe Oak Ridge,108.36,219.99,158.76,219.99,598.74,Single-ply,SBD,M,
Boys,109.77,4,Geronimo Rodriguez,Conroe Grand Oaks,103.6,238.14,124.74,215.46,578.33,Single-ply,SBD,M,
Boys,109.77,5,Myles Terry,Conroe Oak Ridge,103.28,224.53,147.42,197.31,569.26,Single-ply,SBD,M,
Boys,109.77,6,William Yang,Conroe Grand Oaks,109.5,201.85,102.06,183.7,487.61,Single-ply,SBD,M,
Boys,124.74,1,Danny Bonilla,Conroe Oak Ridge,112.17,226.8,124.74,204.12,555.65,Single-ply,SBD,M,
Boys,124.74,2,Cameron Del Rey,Conroe Oak Ridge,116.71,204.12,120.2,210.92,535.24,Single-ply,SBD,M,
Boys,124.74,3,Aiden Garris,Conroe Oak Ridge,121.7,204.12,136.08,192.78,532.97,Single-ply,SBD,M,
Boys,124.74,4,Zander Smiley,Conroe Oak Ridge,124.74,195.04,124.74,183.7,503.49,Single-ply,SBD,M,
Boys,139.71+,1,Matthew Gaudern,Conroe Oak Ridge,153.4,283.5,131.54,226.8,641.83,Single-ply,SBD,M,
