Division,WeightClassKg,Place,Name,Team,BodyweightKg,Best3SquatKg,Best3BenchKg,Best3DeadliftKg,TotalKg,Equipment,Event,Sex
Girls,44.23,1,Karla Lopez,Sharyland Pioneer,43.91,92.99,47.63,111.13,251.74,Single-ply,SBD,F
Girls,44.23,2,Erika Diaz,La Joya Palmview,44,95.25,43.09,95.25,233.6,Single-ply,SBD,F
Girls,44.23,3,Adriana Garza,Sharyland Pioneer,44.09,79.38,40.82,86.18,206.38,Single-ply,SBD,F
Girls,44.23,4,Tekila Cantu,McAllen Memorial,41.1,68.04,24.95,74.84,167.83,Single-ply,SBD,F
Girls,44.23,5,Jackie Cerda,Rio Grande City Grulla,43.77,68.04,24.95,74.84,167.83,Single-ply,SBD,F
Girls,47.85,1,Laisha Lopez,La Joya Palmview,46.4,145.15,79.38,115.67,340.19,Single-ply,SBD,F
Girls,47.85,2,Yanitza Vasquez,La Joya Juarez-Lincoln,47.31,122.47,52.16,138.35,312.98,Single-ply,SBD,F
Girls,47.85,3,Michelle Rodriguez,La Joya Palmview,46.45,104.33,56.7,108.86,269.89,Single-ply,SBD,F
Girls,47.85,4,Yaritza Ortiz,La Joya Palmview,46.27,106.59,52.16,106.59,265.35,Single-ply,SBD,F
Girls,47.85,5,Victoria Plata,McAllen,47.58,102.06,38.56,108.86,249.48,Single-ply,SBD,F
Girls,47.85,6,Baylee Garza,McAllen Rowe,47.63,92.99,52.16,102.06,247.21,Single-ply,SBD,F
Girls,47.85,7,Daniela Plata,McAllen,47.04,95.25,36.29,95.25,226.8,Single-ply,SBD,F
Girls,47.85,8,Yulissa Resendez,Rio Grande City,47.49,74.84,36.29,88.45,199.58,Single-ply,SBD,F
Girls,47.85,9,Torri Carrion,Rio Grande City Grulla,47.81,83.91,34.02,81.65,199.58,Single-ply,SBD,F
Girls,47.85,10,Matilde Garza,Rio Grande City,46.95,72.57,31.75,81.65,185.97,Single-ply,SBD,F
Girls,47.85,11,Kaitlyn Bryan,Mission Veterans Memorial,46.4,61.23,34.02,86.18,181.44,Single-ply,SBD,F
Girls,47.85,12,Jazmin Trevino,Rio Grande City Grulla,46.08,65.77,31.75,79.38,176.9,Single-ply,SBD,F
Girls,51.94,1,Priscilla Hernandez,La Joya Palmview,50.94,142.88,68.04,142.88,353.8,Single-ply,SBD,F
Girls,51.94,2,Amanda Rodriguez #3,Mission Sharyland,50.3,138.35,63.5,145.15,347,Single-ply,SBD,F
Girls,51.94,3,Camila Velez,Mission Sharyland,51.35,133.81,56.7,131.54,322.05,Single-ply,SBD,F
Girls,51.94,4,DeAndra Canales,Rio Grande City,49.4,77.11,31.75,95.25,204.12,Single-ply,SBD,F
Girls,51.94,5,Thais Blancarte,La Joya,49.67,61.23,24.95,77.11,163.29,Single-ply,SBD,F
Girls,51.94,6,Kasey Escamilla,Rio Grande City,50.8,45.36,24.95,72.57,142.88,Single-ply,SBD,F
Girls,56.02,1,Donna Mondragon,La Joya Palmview,55.66,149.69,65.77,138.35,353.8,Single-ply,SBD,F
Girls,56.02,2,Sheyla Cantu,La Joya Juarez-Lincoln,54.39,106.59,56.7,117.93,281.23,Single-ply,SBD,F
Girls,56.02,3,AnaLuz Velasquez,Rio Grande City Grulla,53.21,106.59,43.09,129.27,278.96,Single-ply,SBD,F
Girls,56.02,4,Brianna Anzaldua,Sharyland Pioneer,54.61,115.67,38.56,115.67,269.89,Single-ply,SBD,F
Girls,56.02,5,Karrel Miana,Rio Grande City,53.61,97.52,43.09,97.52,238.14,Single-ply,SBD,F
Girls,56.02,DQ,Mariana Zarate,Mission Sharyland,52.98,,,,,Single-ply,SBD,F
Girls,56.02,DQ,Faith Escamilla,McAllen Memorial,54.75,,,,,Single-ply,SBD,F
Girls,60.1,1,Natalie Villalon,La Joya Palmview,56.61,138.35,68.04,142.88,349.27,Single-ply,SBD,F
Girls,60.1,2,Sofia Longoria,Mission Veterans Memorial,60.1,117.93,54.43,140.61,312.98,Single-ply,SBD,F
Girls,60.1,3,Lorena Celedon,McAllen Rowe,56.43,127.01,58.97,124.74,310.71,Single-ply,SBD,F
Girls,60.1,4,Melanie Cobos,La Joya Palmview,58.06,113.4,54.43,115.67,283.5,Single-ply,SBD,F
Girls,60.1,5,Lilliane Jackson,McAllen,57.42,88.45,56.7,111.13,256.28,Single-ply,SBD,F
Girls,60.1,6,Alisha Garcia,La Joya,59.69,97.52,40.82,111.13,249.48,Single-ply,SBD,F
Girls,60.1,7,Aaliyah Aguirre,La Joya Juarez-Lincoln,59.74,81.65,45.36,90.72,217.72,Single-ply,SBD,F
Girls,60.1,DQ,Alissa Reyna,La Joya,56.74,127.01,56.7,,,Single-ply,SBD,F
Girls,67.36,1,Anna Vela,Mission Veterans Memorial,61.28,140.61,63.5,142.88,347,Single-ply,SBD,F
Girls,67.36,2,April Arellano,McAllen Memorial,66.86,127.01,58.97,133.81,319.78,Single-ply,SBD,F
Girls,67.36,3,Ennette Diaz,La Joya Palmview,64.14,129.27,61.23,115.67,306.17,Single-ply,SBD,F
Girls,67.36,4,Alyssa de la Garza,McAllen Rowe,64,122.47,61.23,108.86,292.57,Single-ply,SBD,F
Girls,67.36,5,Paloma Guerrero,Mission Veterans Memorial,62.05,113.4,45.36,108.86,267.62,Single-ply,SBD,F
Girls,67.36,6,Monett Rodriguez,Sharyland Pioneer,65.54,106.59,52.16,102.06,260.82,Single-ply,SBD,F
Girls,67.36,7,Infinity Jimenez,McAllen Rowe,66.09,95.25,47.63,104.33,247.21,Single-ply,SBD,F
Girls,67.36,8,Alexia Rosas,La Joya Juarez-Lincoln,64.14,92.99,45.36,104.33,242.67,Single-ply,SBD,F
Girls,67.36,9,Bryanna Lopez,Rio Grande City Grulla,65.73,99.79,38.56,99.79,238.14,Single-ply,SBD,F
Girls,67.36,10,Destiny Chavez,La Joya,64.95,90.72,49.9,83.91,224.53,Single-ply,SBD,F
Girls,67.36,11,Briana Mireles,Rio Grande City,61.42,70.31,47.63,83.91,201.85,Single-ply,SBD,F
Girls,67.36,DQ,Gaby Mercado,Mission Sharyland,66.9,127.01,,,,Single-ply,SBD,F
Girls,75.07,1,Carolina Constantino,Mission Sharyland,69.49,183.7,77.11,138.35,399.16,Single-ply,SBD,F
Girls,75.07,2,Nehemiah Coronado,La Joya,72.57,167.83,77.11,149.69,394.63,Single-ply,SBD,F
Girls,75.07,3,Alyssa Moreno,McAllen Memorial,73.07,154.22,81.65,140.61,376.48,Single-ply,SBD,F
Girls,75.07,4,Kayla Leal,La Joya,72.08,138.35,56.7,138.35,333.39,Single-ply,SBD,F
Girls,75.07,5,Samantha Walter,Mission Veterans Memorial,73.98,124.74,79.38,120.2,324.32,Single-ply,SBD,F
Girls,75.07,6,Valerie Cordova,Mission Veterans Memorial,72.44,124.74,65.77,122.47,312.98,Single-ply,SBD,F
Girls,75.07,7,Jennifer Rivera,Rio Grande City,75.07,124.74,63.5,122.47,310.71,Single-ply,SBD,F
Girls,75.07,8,Brianna Flores,Rio Grande City,70.58,102.06,49.9,97.52,249.48,Single-ply,SBD,F
Girls,75.07,9,Deserey Segovia,La Joya Juarez-Lincoln,70.26,97.52,47.63,99.79,244.94,Single-ply,SBD,F
Girls,75.07,10,Taylor Garcia #1,McAllen,73.3,102.06,43.09,97.52,242.67,Single-ply,SBD,F
Girls,82.33,1,Katrina Mendez,Mission Sharyland,79.06,172.37,86.18,149.69,408.23,Single-ply,SBD,F
Girls,82.33,2,Keyla Puente,La Joya,77.93,172.37,72.57,147.42,392.36,Single-ply,SBD,F
Girls,82.33,3,Kathy Bazan,La Joya Palmview,77.61,149.69,83.91,138.35,371.95,Single-ply,SBD,F
Girls,82.33,4,Jeweliana Rosas,La Joya Juarez-Lincoln,76.34,136.08,68.04,136.08,340.19,Single-ply,SBD,F
Girls,82.33,5,Allyson Gutierrez,McAllen Memorial,78.02,129.27,63.5,131.54,324.32,Single-ply,SBD,F
Girls,82.33,6,Monique Garza,McAllen,77.93,138.35,56.7,108.86,303.91,Single-ply,SBD,F
Girls,82.33,7,Sophia Handy,McAllen,80.1,133.81,52.16,111.13,297.1,Single-ply,SBD,F
Girls,82.33,8,Wendy Portillo,La Joya Juarez-Lincoln,80.42,120.2,65.77,108.86,294.84,Single-ply,SBD,F
Girls,82.33,9,Paola Ibarra,Rio Grande City Grulla,79.7,122.47,49.9,115.67,288.03,Single-ply,SBD,F
Girls,82.33,10,Crystal Cabrera,Mission Veterans Memorial,79.33,81.65,27.22,88.45,197.31,Single-ply,SBD,F
Girls,82.33,DQ,Kimberly Junco,McAllen Memorial,80.2,167.83,,,,Single-ply,SBD,F
Girls,90.04,1,Ashley Garza,Rio Grande City,85.09,147.42,72.57,136.08,356.07,Single-ply,SBD,F
Girls,90.04,2,Naylie Chavez,La Joya Juarez-Lincoln,86.32,149.69,70.31,117.93,337.93,Single-ply,SBD,F
Girls,90.04,3,Larissa Perez,McAllen Rowe,82.92,108.86,72.57,108.86,290.3,Single-ply,SBD,F
Girls,90.04,4,Araceli Ozuna,La Joya,83.78,97.52,49.9,102.06,249.48,Single-ply,SBD,F
Girls,100.02,1,Vivi Castillo,Mission Sharyland,94.35,170.1,68.04,165.56,403.7,Single-ply,SBD,F
Girls,100.02,2,Brisa Barrientos,La Joya,94.35,142.88,65.77,142.88,351.53,Single-ply,SBD,F
Girls,100.02,3,Josephine Castro,McAllen Memorial,94.03,140.61,72.57,124.74,337.93,Single-ply,SBD,F
Girls,100.02,4,Natlia Davila,Mission Sharyland,96.75,147.42,61.23,127.01,335.66,Single-ply,SBD,F
Girls,100.02,5,Victoria Serrano,McAllen,95.03,131.54,65.77,124.74,322.05,Single-ply,SBD,F
Girls,100.02,6,Michaela Gomez,McAllen,90.95,124.74,61.23,115.67,301.64,Single-ply,SBD,F
Girls,117.71,1,Leah Cantu,McAllen Memorial,101.6,138.35,74.84,127.01,340.19,Single-ply,SBD,F
Girls,117.71,2,Brianna Rodriguez,Mission Veterans Memorial,101.24,129.27,61.23,129.27,319.78,Single-ply,SBD,F
