Division,WeightClassKg,Place,Name,Team,BodyweightKg,Best3SquatKg,Best3BenchKg,Best3DeadliftKg,TotalKg,Equipment,Event,Sex,BirthDate
Boys,51.71,1,Christopher Ince,Conroe The Woodlands,51.66,95.25,47.63,95.25,238.14,Single-ply,SBD,M,
Boys,51.71,2,Daniel Burgess,Conroe Woodlands College Park,51.57,81.65,45.36,95.25,222.26,Single-ply,SBD,M,
Boys,55.79,1,Emmanuel Villagomez,Conroe Caney Creek,54.75,158.76,95.25,158.76,412.77,Single-ply,SBD,M,
Boys,55.79,2,Ashtin Carlock,Conroe Grand Oaks,54.93,122.47,90.72,138.35,351.53,Single-ply,SBD,M,
Boys,55.79,3,Lukas Alvarez,Conroe The Woodlands,55.79,113.4,65.77,138.35,317.51,Single-ply,SBD,M,
Boys,59.87,1,Hank Hewgley,Conroe The Woodlands,59.74,151.95,99.79,145.15,396.89,Single-ply,SBD,M,
Boys,59.87,2,Adahir Landeros,Conroe,56.43,92.99,61.23,108.86,263.08,Single-ply,SBD,M,
Boys,67.13,1,Rogelio Barrera,Conroe,66.22,215.46,129.27,208.65,553.38,Single-ply,SBD,M,
Boys,67.13,2,Ryan Johnson,Conroe Grand Oaks,67,176.9,120.2,190.51,487.61,Single-ply,SBD,M,
Boys,67.13,3,Mauricio Kerguelen,Conroe The Woodlands,67.04,176.9,113.4,179.17,469.47,Single-ply,SBD,M,
Boys,67.13,4,Tyler Higginbotham,Conroe The Woodlands,67.04,185.97,106.59,174.63,467.2,Single-ply,SBD,M,
Boys,67.13,5,Nate Provost,Conroe The Woodlands,66.81,170.1,79.38,192.78,442.25,Single-ply,SBD,M,
Boys,67.13,6,Gonzalo Diaz,Conroe Caney Creek,64.82,158.76,92.99,156.49,408.23,Single-ply,SBD,M,
Boys,67.13,7,Jerry Contreras,Conroe The Woodlands,65.05,163.29,79.38,158.76,401.43,Single-ply,SBD,M,
Boys,67.13,8,Dominic Flores,Conroe,60.28,124.74,83.91,142.88,351.53,Single-ply,SBD,M,
Boys,67.13,9,Jesse Rodgers,Conroe Grand Oaks,61.46,117.93,81.65,151.95,351.53,Single-ply,SBD,M,
Boys,67.13,10,Carlos Martinez,Conroe Caney Creek,62.51,127.01,65.77,127.01,319.78,Single-ply,SBD,M,
Boys,67.13,DQ,Alex Turner #1,Conroe The Woodlands,64.64,,,,,Single-ply,SBD,M,
Boys,74.84,1,Daniel Gil,Conroe The Woodlands,67.77,192.78,138.35,206.38,537.51,Single-ply,SBD,M,
Boys,74.84,2,Will Sere,Conroe Grand Oaks,72.21,215.46,108.86,204.12,528.44,Single-ply,SBD,M,
Boys,74.84,DQ,Christian Weaver,Conroe,74.66,,,,,Single-ply,SBD,M,
Boys,82.1,1,Nathan Leone,Conroe The Woodlands,81.24,229.06,129.27,219.99,578.33,Single-ply,SBD,M,
Boys,82.1,2,Diego Trujillo,Conroe Oak Ridge,80.69,206.38,138.35,219.99,564.72,Single-ply,SBD,M,
Boys,82.1,3,Colton Smith,Conroe The Woodlands,81.92,215.46,124.74,208.65,548.85,Single-ply,SBD,M,
Boys,82.1,4,Hector Gonzalez,Conroe,81.42,190.51,113.4,208.65,512.56,Single-ply,SBD,M,
Boys,82.1,5,Riley Stewart,Conroe,82.1,195.04,115.67,181.44,492.15,Single-ply,SBD,M,
Boys,82.1,6,Connor Ritter,Conroe Woodlands College Park,81.42,167.83,133.81,167.83,469.47,Single-ply,SBD,M,
Boys,82.1,7,Ivan Garzoria,Conroe Caney Creek,81.96,142.88,86.18,147.42,376.48,Single-ply,SBD,M,
Boys,89.81,1,Andrew Larkworthy,Conroe The Woodlands,89.72,199.58,142.88,217.72,560.19,Single-ply,SBD,M,
Boys,89.81,2,Shannon Richardson,Conroe,89.13,199.58,127.01,229.06,555.65,Single-ply,SBD,M,
Boys,89.81,3,David Bush,Conroe Grand Oaks,83.19,222.26,136.08,195.04,553.38,Single-ply,SBD,M,
Boys,89.81,4,Dyllan Cuellar,Conroe Grand Oaks,87.36,190.51,124.74,206.38,521.63,Single-ply,SBD,M,
Boys,89.81,5,Jacob Englebretson,Conroe Grand Oaks,87.54,170.1,111.13,201.85,483.08,Single-ply,SBD,M,
Boys,89.81,6,Jack Lutz,Conroe Woodlands College Park,85.46,115.67,95.25,170.1,381.02,Single-ply,SBD,M,
Boys,89.81,DQ,Angel Ramirez,Conroe Caney Creek,85.41,183.7,88.45,,,Single-ply,SBD,M,
Boys,99.79,1,Micaiah Loop,Conroe,99.11,274.42,192.78,263.08,730.28,Single-ply,SBD,M,
Boys,99.79,2,Payton Korolyk,Conroe Grand Oaks,99.43,260.82,170.1,265.35,696.26,Single-ply,SBD,M,
Boys,99.79,3,Myles Terry,Conroe Oak Ridge,99.16,231.33,149.69,222.26,603.28,Single-ply,SBD,M,
Boys,99.79,4,Alex Martin #2,Conroe The Woodlands,99.06,238.14,142.88,217.72,598.74,Single-ply,SBD,M,
Boys,99.79,5,Jaylon Wyatt,Conroe Oak Ridge,99.11,213.19,158.76,226.8,598.74,Single-ply,SBD,M,
Boys,99.79,6,Jacob Otano,Conroe The Woodlands,99.34,217.72,127.01,226.8,571.53,Single-ply,SBD,M,
Boys,99.79,7,Ben DelRey,Conroe Oak Ridge,95.35,208.65,106.59,206.38,521.63,Single-ply,SBD,M,
Boys,99.79,8,Christian Slabic,Conroe Caney Creek,99.06,181.44,115.67,204.12,501.22,Single-ply,SBD,M,
Boys,99.79,9,Jake Marriot,Conroe Woodlands College Park,96.98,183.7,115.67,185.97,485.34,Single-ply,SBD,M,
Boys,99.79,10,Ethan Scott,Conroe The Woodlands,91.44,165.56,111.13,170.1,446.79,Single-ply,SBD,M,
Boys,99.79,DQ,Colby Albritton,Conroe Grand Oaks,99.65,,,,,Single-ply,SBD,M,
Boys,109.77,1,Logan Ecuyer,Conroe The Woodlands,105.14,301.64,192.78,290.3,784.71,Single-ply,SBD,M,
Boys,109.77,2,Jacob Harris,Conroe Oak Ridge,109.5,265.35,158.76,254.01,678.12,Single-ply,SBD,M,
Boys,109.77,3,Jesus Hernandez #4,Conroe Oak Ridge,108.54,249.48,158.76,231.33,639.57,Single-ply,SBD,M,
Boys,109.77,4,Clayton Redd,Conroe Caney Creek,100.74,188.24,124.74,206.38,519.36,Single-ply,SBD,M,
Boys,109.77,5,Cameron Hall #2,Conroe Woodlands College Park,106.78,188.24,117.93,176.9,483.08,Single-ply,SBD,M,
Boys,109.77,6,Alex Fisher,Conroe Woodlands College Park,109.13,156.49,115.67,163.29,435.45,Single-ply,SBD,M,
Boys,109.77,DQ,Geronimo Rodriguez,Conroe Grand Oaks,105.37,238.14,,,,Single-ply,SBD,M,
Boys,124.74,1,Danny Bonilla,Conroe Oak Ridge,114.89,238.14,151.95,231.33,621.42,Single-ply,SBD,M,
Boys,124.74,2,Cobe Williams,Conroe Woodlands College Park,122.79,226.8,165.56,226.8,619.15,Single-ply,SBD,M,
Boys,124.74,3,Aiden Garris,Conroe Oak Ridge,123.51,244.94,136.08,201.85,582.87,Single-ply,SBD,M,
Boys,124.74,4,Cameron Del Rey,Conroe Oak Ridge,118.84,233.6,136.08,204.12,573.79,Single-ply,SBD,M,
Boys,124.74,5,Jacob Pitzer,Conroe,112.81,210.92,133.81,224.53,569.26,Single-ply,SBD,M,
Boys,124.74,6,Chance Jackson,Conroe Woodlands College Park,121.52,195.04,149.69,185.97,530.7,Single-ply,SBD,M,
Boys,124.74,7,Ricardo Faz,Conroe Caney Creek,122.74,195.04,124.74,183.7,503.49,Single-ply,SBD,M,
Boys,124.74,8,Carson Berg,Conroe Woodlands College Park,120.47,170.1,124.74,149.69,444.52,Single-ply,SBD,M,
Boys,124.74,DQ,William Yang,Conroe Grand Oaks,111.04,226.8,,,,Single-ply,SBD,M,
Boys,139.71,1,Sebastian Duarte,Conroe The Woodlands,125.1,244.94,174.63,238.14,657.71,Single-ply,SBD,M,
Boys,139.71,2,Marque Johnson #3,Conroe,130,274.42,145.15,219.99,639.57,Single-ply,SBD,M,
Boys,139.71,3,Augustus Belser,Conroe Grand Oaks,130.45,238.14,140.61,215.46,594.21,Single-ply,SBD,M,
Boys,139.71,4,Koltin Sieracki,Conroe The Woodlands,134.99,204.12,151.95,192.78,548.85,Single-ply,SBD,M,
Boys,139.71,5,Zach Thompson,Conroe Oak Ridge,132.68,226.8,113.4,192.78,532.97,Single-ply,SBD,M,
Boys,139.71+,1,Matthew Gaudern,Conroe Oak Ridge,152.18,281.23,127.01,235.87,644.1,Single-ply,SBD,M,
Boys,139.71+,2,Demarcus Wilridge,Conroe,144.42,233.6,142.88,192.78,569.26,Single-ply,SBD,M,
Boys,139.71+,3,Joshua Henry,Conroe Caney Creek,155.04,195.04,154.22,208.65,557.92,Single-ply,SBD,M,
